(module Diode_SMD:D_SMF_01 (layer F.Cu) (tedit 61660905)
  (descr "Diode SMF (DO-219AB), http://www.vishay.com/docs/95572/smf_do-219ab.pdf")
  (tags "Diode SMF (DO-214AB)")
  (attr smd)
  (fp_text reference REF** (at 0 -2) (layer F.SilkS)
    (effects (font (size 1 1) (thickness 0.15)))
  )
  (fp_text value D_SMF_01 (at 0 2) (layer F.Fab)
    (effects (font (size 1 1) (thickness 0.15)))
  )
  (fp_text user %R (at 0 -2) (layer F.Fab)
    (effects (font (size 1 1) (thickness 0.15)))
  )
  (fp_line (start -2.28 -1.01) (end -2.28 1.01) (layer F.SilkS) (width 0.12))
  (fp_line (start 1.4 0.9) (end -1.4 0.9) (layer F.Fab) (width 0.1))
  (fp_line (start -1.4 0.9) (end -1.4 -0.9) (layer F.Fab) (width 0.1))
  (fp_line (start 1.4 -0.9) (end 1.4 0.9) (layer F.Fab) (width 0.1))
  (fp_line (start 1.4 -0.9) (end -1.4 -0.9) (layer F.Fab) (width 0.1))
  (fp_line (start -2.35 -1.15) (end 2.35 -1.15) (layer F.CrtYd) (width 0.05))
  (fp_line (start 2.35 -1.15) (end 2.35 1.15) (layer F.CrtYd) (width 0.05))
  (fp_line (start 2.35 1.15) (end -2.35 1.15) (layer F.CrtYd) (width 0.05))
  (fp_line (start -2.35 1.15) (end -2.35 -1.15) (layer F.CrtYd) (width 0.05))
  (fp_line (start -0.3 0) (end -0.9 0) (layer F.Fab) (width 0.1))
  (fp_line (start 0.3 0) (end 0.9 0) (layer F.Fab) (width 0.1))
  (fp_line (start -0.3 -0.4) (end -0.3 0.4) (layer F.Fab) (width 0.1))
  (fp_line (start 0.3 0.4) (end 0.3 -0.4) (layer F.Fab) (width 0.1))
  (fp_line (start -0.3 0.00102) (end 0.3 0.4) (layer F.Fab) (width 0.1))
  (fp_line (start -0.3 0) (end 0.3 -0.4) (layer F.Fab) (width 0.1))
  (fp_line (start -2.28 1.01) (end 1.4 1.01) (layer F.SilkS) (width 0.12))
  (fp_line (start -2.28 -1.01) (end 1.4 -1.01) (layer F.SilkS) (width 0.12))
  (pad 1 smd rect (at 1.45 0) (size 1.3 1.4) (layers F.Cu F.Paste F.Mask))
  (pad 0 smd rect (at -1.45 0) (size 1.3 1.4) (layers F.Cu F.Paste F.Mask))
  (model ${KISYS3DMOD}/Diode_SMD.3dshapes/D_SOD-123.step
    (at (xyz 0 0 0))
    (scale (xyz 1 1 1))
    (rotate (xyz 0 0 0))
  )
)
