EESchema Schematic File Version 4
EELAYER 30 0
EELAYER END
$Descr A4 11693 8268
encoding utf-8
Sheet 1 1
Title "Temperature Probe for Oscilloscope"
Date "2021-10-12"
Rev "0.0.0"
Comp ""
Comment1 "no restrictive LICENSE, see LICENSE file of project"
Comment2 "https://gitlab.com/goblinrieur/celcius-probe-for-oscillo"
Comment3 "goblinrieur@gmail.com"
Comment4 ""
$EndDescr
$Comp
L power:GND #PWR01
U 1 1 6166E3A6
P 2400 6850
F 0 "#PWR01" H 2400 6600 50  0001 C CNN
F 1 "GND" H 2405 6677 50  0000 C CNN
F 2 "" H 2400 6850 50  0001 C CNN
F 3 "" H 2400 6850 50  0001 C CNN
	1    2400 6850
	1    0    0    -1  
$EndComp
Wire Wire Line
	2400 6800 2400 6850
Connection ~ 2400 6800
Wire Wire Line
	2400 6800 2450 6800
NoConn ~ 3350 1750
Wire Wire Line
	4100 1100 3850 1100
Wire Wire Line
	3850 1100 3850 1350
$Comp
L Device:R_US R6
U 1 1 6168B813
P 3850 2700
F 0 "R6" H 3918 2746 50  0000 L CNN
F 1 "12k" H 3918 2655 50  0000 L CNN
F 2 "Resistor_SMD:R_0805_2012Metric" V 3890 2690 50  0001 C CNN
F 3 "~" H 3850 2700 50  0001 C CNN
	1    3850 2700
	1    0    0    -1  
$EndComp
Text GLabel 3500 3000 0    50   Input ~ 0
V_-15v
Wire Wire Line
	3850 2550 3850 2350
$Comp
L Device:R_US R10
U 1 1 6168C58F
P 5000 2350
F 0 "R10" V 4795 2350 50  0000 C CNN
F 1 "10k_1%" V 4886 2350 50  0000 C CNN
F 2 "Resistor_THT:R_Axial_DIN0204_L3.6mm_D1.6mm_P5.08mm_Horizontal" V 5040 2340 50  0001 C CNN
F 3 "~" H 5000 2350 50  0001 C CNN
	1    5000 2350
	0    1    1    0   
$EndComp
Wire Wire Line
	4850 2350 3850 2350
Connection ~ 3850 2350
$Comp
L Amplifier_Operational:OP77 U7
U 1 1 6168D3DE
P 5800 2450
F 0 "U7" H 6000 2700 50  0000 L CNN
F 1 "OP77" H 6000 2600 50  0000 L CNN
F 2 "Package_SO:SOIC-8_3.9x4.9mm_P1.27mm" H 5850 2500 50  0001 C CNN
F 3 "https://www.analog.com/media/en/technical-documentation/data-sheets/OP77.pdf" H 5850 2600 50  0001 C CNN
	1    5800 2450
	1    0    0    1   
$EndComp
Wire Wire Line
	5500 2350 5350 2350
NoConn ~ 5800 2150
NoConn ~ 5900 2150
$Comp
L Device:D_Zener D6
U 1 1 6169203A
P 3850 3750
F 0 "D6" V 3804 3830 50  0000 L CNN
F 1 "6.2v" V 3895 3830 50  0000 L CNN
F 2 "Resistor_THT:R_Axial_DIN0204_L3.6mm_D1.6mm_P7.62mm_Horizontal" H 3850 3750 50  0001 C CNN
F 3 "~" H 3850 3750 50  0001 C CNN
	1    3850 3750
	0    1    1    0   
$EndComp
$Comp
L power:GND #PWR06
U 1 1 61692602
P 3500 3600
F 0 "#PWR06" H 3500 3350 50  0001 C CNN
F 1 "GND" H 3505 3427 50  0000 C CNN
F 2 "" H 3500 3600 50  0001 C CNN
F 3 "" H 3500 3600 50  0001 C CNN
	1    3500 3600
	1    0    0    -1  
$EndComp
Wire Wire Line
	3850 3600 3850 3450
Wire Wire Line
	3850 3450 3500 3450
Wire Wire Line
	3500 3450 3500 3600
$Comp
L Diode:1N4001 D7
U 1 1 6169350C
P 3850 4150
F 0 "D7" V 3896 4070 50  0000 R CNN
F 1 "1N4001" V 3805 4070 50  0000 R CNN
F 2 "Resistor_THT:R_Axial_DIN0204_L3.6mm_D1.6mm_P7.62mm_Horizontal" H 3850 3975 50  0001 C CNN
F 3 "http://www.vishay.com/docs/88503/1n4001.pdf" H 3850 4150 50  0001 C CNN
	1    3850 4150
	0    -1   -1   0   
$EndComp
$Comp
L Device:R_US R7
U 1 1 61694C6A
P 3850 4650
F 0 "R7" H 3918 4696 50  0000 L CNN
F 1 "12k" H 3918 4605 50  0000 L CNN
F 2 "Resistor_SMD:R_0805_2012Metric" V 3890 4640 50  0001 C CNN
F 3 "~" H 3850 4650 50  0001 C CNN
	1    3850 4650
	1    0    0    -1  
$EndComp
Text GLabel 3500 4950 0    50   Input ~ 0
V_-15v
Wire Wire Line
	3850 3900 3850 4000
Wire Wire Line
	3850 4300 3850 4450
Wire Wire Line
	3850 4800 3850 4950
Wire Wire Line
	3850 4950 3500 4950
Wire Wire Line
	3850 3000 3850 2850
Wire Wire Line
	3500 3000 3850 3000
$Comp
L Device:R_US R9
U 1 1 61698151
P 4650 4450
F 0 "R9" V 4445 4450 50  0000 C CNN
F 1 "39k" V 4536 4450 50  0000 C CNN
F 2 "Resistor_SMD:R_0805_2012Metric" V 4690 4440 50  0001 C CNN
F 3 "~" H 4650 4450 50  0001 C CNN
	1    4650 4450
	0    1    1    0   
$EndComp
$Comp
L Device:R_US R8
U 1 1 616990EF
P 4650 3450
F 0 "R8" V 4445 3450 50  0000 C CNN
F 1 "24k" V 4536 3450 50  0000 C CNN
F 2 "Resistor_SMD:R_0805_2012Metric" V 4690 3440 50  0001 C CNN
F 3 "~" H 4650 3450 50  0001 C CNN
	1    4650 3450
	0    1    1    0   
$EndComp
$Comp
L Device:R_Potentiometer_US RV6
U 1 1 6169A022
P 5000 3900
F 0 "RV6" H 4932 3946 50  0000 R CNN
F 1 "5k" H 4932 3855 50  0000 R CNN
F 2 "Potentiometer_THT:Potentiometer_Bourns_3296W_Vertical" H 5000 3900 50  0001 C CNN
F 3 "~" H 5000 3900 50  0001 C CNN
	1    5000 3900
	1    0    0    -1  
$EndComp
Wire Wire Line
	4500 3450 3850 3450
Connection ~ 3850 3450
Wire Wire Line
	4800 3450 5000 3450
Wire Wire Line
	5000 3450 5000 3750
Wire Wire Line
	5000 4050 5000 4450
Wire Wire Line
	5000 4450 4800 4450
Wire Wire Line
	4500 4450 3850 4450
Connection ~ 3850 4450
Wire Wire Line
	3850 4450 3850 4500
Wire Wire Line
	5150 3900 5350 3900
Wire Wire Line
	5350 3900 5350 2550
Wire Wire Line
	5350 2550 5500 2550
Text Notes 3550 4450 0    50   ~ 0
-6.8v\n
Text Notes 3550 4150 0    50   ~ 0
-2.9v\n
Text Notes 5050 2650 0    50   ~ 0
-2.73v\n
Text Notes 3950 2300 0    50   ~ 0
-2.97v
$Comp
L Device:R_US R21
U 1 1 6169F9F0
P 6150 1000
F 0 "R21" V 5945 1000 50  0000 C CNN
F 1 "100k" V 6036 1000 50  0000 C CNN
F 2 "Resistor_SMD:R_0805_2012Metric" V 6190 990 50  0001 C CNN
F 3 "~" H 6150 1000 50  0001 C CNN
	1    6150 1000
	0    1    1    0   
$EndComp
$Comp
L Device:C C21
U 1 1 616A0497
P 6150 1350
F 0 "C21" V 5898 1350 50  0000 C CNN
F 1 "100n" V 5989 1350 50  0000 C CNN
F 2 "Capacitor_SMD:C_0603_1608Metric" H 6188 1200 50  0001 C CNN
F 3 "~" H 6150 1350 50  0001 C CNN
	1    6150 1350
	0    1    1    0   
$EndComp
Wire Wire Line
	6000 1350 5350 1350
Wire Wire Line
	5350 1350 5350 2350
Connection ~ 5350 2350
Wire Wire Line
	5350 2350 5150 2350
Wire Wire Line
	5350 1350 5350 1000
Wire Wire Line
	5350 1000 6000 1000
Connection ~ 5350 1350
$Comp
L Device:R_US R22
U 1 1 616A25C8
P 7350 2750
F 0 "R22" H 7282 2704 50  0000 R CNN
F 1 "47k" H 7282 2795 50  0000 R CNN
F 2 "Resistor_SMD:R_0805_2012Metric" V 7390 2740 50  0001 C CNN
F 3 "~" H 7350 2750 50  0001 C CNN
	1    7350 2750
	-1   0    0    1   
$EndComp
Wire Wire Line
	7350 2600 7350 2450
Wire Wire Line
	7350 2450 7000 2450
$Comp
L Switch:SW_SPDT SW21
U 1 1 616A732E
P 7700 2450
F 0 "SW21" H 7700 2125 50  0000 C CNN
F 1 "bypass" H 7700 2216 50  0000 C CNN
F 2 "Connector_PinHeader_2.54mm:PinHeader_1x03_P2.54mm_Horizontal" H 7700 2450 50  0001 C CNN
F 3 "~" H 7700 2450 50  0001 C CNN
	1    7700 2450
	1    0    0    1   
$EndComp
Wire Wire Line
	7500 2450 7350 2450
Connection ~ 7350 2450
$Comp
L SparkFun-Connectors:BNCPTH J21
U 1 1 616A8941
P 8900 2350
F 0 "J21" H 8772 2390 45  0000 R CNN
F 1 "BNCPTH" H 8772 2306 45  0000 R CNN
F 2 "PERSO:MicroCoaxSMD" H 8900 2600 20  0001 C CNN
F 3 "" H 8900 2350 50  0001 C CNN
F 4 "LPA-12729" H 8772 2211 60  0000 R CNN "Field4"
	1    8900 2350
	-1   0    0    -1  
$EndComp
$Comp
L Device:L L21
U 1 1 616AA035
P 8250 2350
F 0 "L21" V 8440 2350 50  0000 C CNN
F 1 "L" V 8349 2350 50  0000 C CNN
F 2 "Resistor_THT:R_Axial_DIN0207_L6.3mm_D2.5mm_P10.16mm_Horizontal" H 8250 2350 50  0001 C CNN
F 3 "~" H 8250 2350 50  0001 C CNN
	1    8250 2350
	0    -1   -1   0   
$EndComp
Wire Wire Line
	7900 2350 8100 2350
Wire Wire Line
	8400 2350 8500 2350
Wire Wire Line
	7900 2550 8500 2550
Wire Wire Line
	8500 2550 8500 2350
Connection ~ 8500 2350
Wire Wire Line
	8500 2350 8600 2350
$Comp
L Device:C C22
U 1 1 616B1F44
P 6300 1850
F 0 "C22" H 6050 1900 50  0000 L CNN
F 1 "100n" H 6000 1800 50  0000 L CNN
F 2 "Capacitor_SMD:C_0603_1608Metric" H 6338 1700 50  0001 C CNN
F 3 "~" H 6300 1850 50  0001 C CNN
	1    6300 1850
	1    0    0    -1  
$EndComp
Wire Wire Line
	6300 1700 6300 1650
Wire Wire Line
	6300 1650 5700 1650
Wire Wire Line
	5700 1650 5700 2150
$Comp
L power:GND #PWR021
U 1 1 616B7093
P 6300 2100
F 0 "#PWR021" H 6300 1850 50  0001 C CNN
F 1 "GND" H 6305 1927 50  0000 C CNN
F 2 "" H 6300 2100 50  0001 C CNN
F 3 "" H 6300 2100 50  0001 C CNN
	1    6300 2100
	1    0    0    -1  
$EndComp
Wire Wire Line
	6300 2100 6300 2000
Wire Wire Line
	6300 1350 7000 1350
Wire Wire Line
	7000 1350 7000 2450
Connection ~ 7000 2450
Wire Wire Line
	7000 2450 6100 2450
Wire Wire Line
	7000 1350 7000 1000
Wire Wire Line
	7000 1000 6300 1000
Connection ~ 7000 1350
Text GLabel 6500 1650 2    50   Input ~ 0
V_+15v
Connection ~ 6300 1650
Wire Wire Line
	6300 1650 6500 1650
$Comp
L Device:C C23
U 1 1 616CB8AB
P 6300 3300
F 0 "C23" H 6050 3350 50  0000 L CNN
F 1 "100n" H 6000 3250 50  0000 L CNN
F 2 "Capacitor_SMD:C_0603_1608Metric" H 6338 3150 50  0001 C CNN
F 3 "~" H 6300 3300 50  0001 C CNN
	1    6300 3300
	1    0    0    -1  
$EndComp
Wire Wire Line
	6300 3150 6300 3100
Wire Wire Line
	6300 3100 5700 3100
Wire Wire Line
	6300 3550 6300 3450
Connection ~ 6300 3100
Wire Wire Line
	6300 3100 6500 3100
Wire Wire Line
	5700 3100 5700 2750
Text GLabel 6500 3100 2    50   Input ~ 0
V_-15v
Text Notes 7750 2000 0    50   ~ 0
If needed add on\nthis connector an \nInductor else switch\non bypass (default).
Text Notes 8050 2650 0    50   ~ 0
around 2.4v
Wire Wire Line
	4850 6100 4850 5950
Text GLabel 4850 5950 1    50   Output ~ 0
V_+15v
Text GLabel 4850 6800 3    50   Output ~ 0
V_-15v
Wire Wire Line
	3800 6300 3900 6300
Wire Wire Line
	3450 6500 3450 6800
$Comp
L power:GND #PWR04
U 1 1 6167392D
P 3800 6800
F 0 "#PWR04" H 3800 6550 50  0001 C CNN
F 1 "GND" H 3805 6627 50  0000 C CNN
F 2 "" H 3800 6800 50  0001 C CNN
F 3 "" H 3800 6800 50  0001 C CNN
	1    3800 6800
	1    0    0    -1  
$EndComp
Connection ~ 3450 6100
Wire Wire Line
	3450 6300 3450 6100
Wire Wire Line
	3250 6100 3450 6100
$Comp
L power:GND #PWR03
U 1 1 61672EEF
P 3450 6800
F 0 "#PWR03" H 3450 6550 50  0001 C CNN
F 1 "GND" H 3455 6627 50  0000 C CNN
F 2 "" H 3450 6800 50  0001 C CNN
F 3 "" H 3450 6800 50  0001 C CNN
	1    3450 6800
	1    0    0    -1  
$EndComp
$Comp
L power:GND #PWR02
U 1 1 61672D73
P 2750 6800
F 0 "#PWR02" H 2750 6550 50  0001 C CNN
F 1 "GND" H 2755 6627 50  0000 C CNN
F 2 "" H 2750 6800 50  0001 C CNN
F 3 "" H 2750 6800 50  0001 C CNN
	1    2750 6800
	1    0    0    -1  
$EndComp
$Comp
L Device:C_Small C1
U 1 1 61670F03
P 3450 6400
F 0 "C1" H 3542 6446 50  0000 L CNN
F 1 "100n" H 3542 6355 50  0000 L CNN
F 2 "Capacitor_SMD:C_0603_1608Metric" H 3450 6400 50  0001 C CNN
F 3 "~" H 3450 6400 50  0001 C CNN
	1    3450 6400
	1    0    0    -1  
$EndComp
$Comp
L Device:L L1
U 1 1 6166F295
P 3100 6100
F 0 "L1" V 3290 6100 50  0000 C CNN
F 1 "vk200" V 3199 6100 50  0000 C CNN
F 2 "Resistor_THT:R_Axial_DIN0207_L6.3mm_D2.5mm_P10.16mm_Horizontal" H 3100 6100 50  0001 C CNN
F 3 "~" H 3100 6100 50  0001 C CNN
	1    3100 6100
	0    1    -1   0   
$EndComp
$Comp
L Diode:TVS TVS_1
U 1 1 6166ACF8
P 2800 6400
F 0 "TVS_1" V 2754 6478 50  0000 L CNN
F 1 "SMF5.0" V 2845 6478 50  0000 L CNN
F 2 "PERSO:D_SMF_01" H 2800 6400 50  0001 C CNN
F 3 "" H 2800 6400 50  0001 C CNN
	1    2800 6400
	0    1    1    0   
$EndComp
$Comp
L Converter_DCDC:IA0515D PS1
U 1 1 61665C0D
P 4300 6200
F 0 "PS1" H 4300 6567 50  0000 C CNN
F 1 "IA0515D" H 4300 6476 50  0000 C CNN
F 2 "Converter_DCDC:Converter_DCDC_TRACO_TMR-1-xxxx_Dual_THT" H 3250 5950 50  0001 L CNN
F 3 "https://www.xppower.com/pdfs/SF_IA.pdf" H 5350 5900 50  0001 L CNN
	1    4300 6200
	1    0    0    -1  
$EndComp
Wire Wire Line
	5550 7000 5550 7100
Wire Wire Line
	5550 6600 5550 6700
$Comp
L Device:R_US R1
U 1 1 616D930A
P 5550 7250
F 0 "R1" H 5482 7204 50  0000 R CNN
F 1 "2.2k" H 5482 7295 50  0000 R CNN
F 2 "Resistor_SMD:R_0805_2012Metric" V 5590 7240 50  0001 C CNN
F 3 "~" H 5550 7250 50  0001 C CNN
	1    5550 7250
	-1   0    0    1   
$EndComp
$Comp
L Device:LED D1
U 1 1 616D8D70
P 5550 6850
F 0 "D1" V 5589 6732 50  0000 R CNN
F 1 "GrennLED3mm" V 5498 6732 50  0000 R CNN
F 2 "LED_THT:LED_D3.0mm_Clear" H 5550 6850 50  0001 C CNN
F 3 "~" H 5550 6850 50  0001 C CNN
	1    5550 6850
	0    -1   -1   0   
$EndComp
NoConn ~ 5750 6600
Wire Wire Line
	5650 6100 5650 6200
$Comp
L Switch:SW_SPDT SW1
U 1 1 616D3239
P 5650 6400
F 0 "SW1" V 5604 6212 50  0000 R CNN
F 1 "need_led?" V 5695 6212 50  0000 R CNN
F 2 "Connector_PinHeader_2.54mm:PinHeader_1x03_P2.54mm_Horizontal" H 5650 6400 50  0001 C CNN
F 3 "~" H 5650 6400 50  0001 C CNN
	1    5650 6400
	0    -1   1    0   
$EndComp
Text Notes 2100 1900 0    50   ~ 0
Ignore internal adjustment\nuse external one managed\nas non-inverted entry of\noperational amplifier
Text Notes 6500 6000 0    50   ~ 0
Use a high value\nresistor as to\nlimit led current\n& use more current \nfor the circuit \ncan be a good practice
Wire Wire Line
	5050 6200 5050 6800
Connection ~ 4850 6100
Wire Wire Line
	4700 6100 4850 6100
Wire Wire Line
	4850 6300 4700 6300
Wire Wire Line
	4700 6200 5050 6200
Wire Wire Line
	3850 2350 3850 2150
Wire Wire Line
	2350 6100 2500 6100
Wire Wire Line
	4850 6100 5650 6100
$Comp
L lmc335a:LMC335A U1
U 1 1 617862D3
P 3850 1750
F 0 "U1" H 4394 1796 50  0000 L CNN
F 1 "LMC335A" H 4394 1705 50  0000 L CNN
F 2 "Package_SO:SOIC-8_3.9x4.9mm_P1.27mm" H 4500 1350 50  0001 C CNN
F 3 "https://www.ti.com/lit/ds/symlink/lm135.pdf" H 4700 1350 50  0001 C CNN
	1    3850 1750
	1    0    0    -1  
$EndComp
$Comp
L power:PWR_FLAG #FLG0102
U 1 1 6178C37E
P 2500 5750
F 0 "#FLG0102" H 2500 5825 50  0001 C CNN
F 1 "PWR_FLAG" H 2500 5923 50  0000 C CNN
F 2 "" H 2500 5750 50  0001 C CNN
F 3 "~" H 2500 5750 50  0001 C CNN
	1    2500 5750
	1    0    0    -1  
$EndComp
Wire Wire Line
	2500 5750 2500 6100
Connection ~ 2500 6100
Wire Wire Line
	3450 6100 3700 6100
Wire Wire Line
	4850 6300 4850 6800
$Comp
L power:PWR_FLAG #FLG0101
U 1 1 61794EC1
P 3700 5750
F 0 "#FLG0101" H 3700 5825 50  0001 C CNN
F 1 "PWR_FLAG" H 3700 5923 50  0000 C CNN
F 2 "" H 3700 5750 50  0001 C CNN
F 3 "~" H 3700 5750 50  0001 C CNN
	1    3700 5750
	1    0    0    -1  
$EndComp
Wire Wire Line
	3700 5750 3700 6100
Connection ~ 3700 6100
Wire Wire Line
	3700 6100 3900 6100
Wire Wire Line
	2500 6100 2750 6100
Wire Wire Line
	2750 6150 2750 6100
Connection ~ 2750 6100
Wire Wire Line
	2750 6100 2950 6100
Wire Wire Line
	2750 6700 2750 6800
Text GLabel 5050 6800 3    50   Output ~ 0
n0v
Text GLabel 5450 7500 0    50   Input ~ 0
n0v
Wire Wire Line
	5550 7400 5550 7500
Wire Wire Line
	5550 7500 5450 7500
Text GLabel 6300 3550 3    50   Input ~ 0
n0v
Text GLabel 7350 3550 3    50   Input ~ 0
n0v
Wire Wire Line
	7350 2900 7350 3550
Wire Wire Line
	3800 6300 3800 6800
Text GLabel 8800 2900 0    50   Input ~ 0
n0v
Wire Wire Line
	8800 2900 8900 2900
Wire Wire Line
	8900 2550 8900 2900
Text GLabel 4100 1100 2    50   Input ~ 0
n0v
$Comp
L power:PWR_FLAG #FLG0103
U 1 1 617EC3DD
P 1850 6750
F 0 "#FLG0103" H 1850 6825 50  0001 C CNN
F 1 "PWR_FLAG" H 1850 6923 50  0000 C CNN
F 2 "" H 1850 6750 50  0001 C CNN
F 3 "~" H 1850 6750 50  0001 C CNN
	1    1850 6750
	1    0    0    -1  
$EndComp
Wire Wire Line
	1850 6800 1850 6750
$Comp
L usb-a:USB-A J1
U 1 1 6168AF8A
P 1800 6050
F 0 "J1" H 1693 6517 50  0000 C CNN
F 1 "USB-A" H 1693 6426 50  0000 C CNN
F 2 "Connector_USB:USB_Mini-B_Lumberg_2486_01_Horizontal" H 1750 6200 50  0001 L BNN
F 3 "" H 1800 6050 50  0001 L BNN
	1    1800 6050
	-1   0    0    -1  
$EndComp
NoConn ~ 2200 6050
NoConn ~ 2200 5950
Wire Wire Line
	2350 6100 2350 5800
Wire Wire Line
	2350 5800 2200 5800
Wire Wire Line
	2200 6150 2250 6150
Wire Wire Line
	2250 6150 2250 6300
Wire Wire Line
	2250 6300 2200 6300
Wire Wire Line
	2250 6300 2250 6400
Wire Wire Line
	2250 6400 2200 6400
Connection ~ 2250 6300
Wire Wire Line
	2250 6400 2450 6400
Wire Wire Line
	2450 6400 2450 6800
Connection ~ 2250 6400
Wire Wire Line
	1850 6800 2400 6800
$EndSCHEMATC
