%FSLAX45Y45*%
G04 Gerber Fmt 4.5, Leading zero omitted, Abs format (unit mm)*
G04 Created by KiCad (PCBNEW 5.99.0+really5.1.10+dfsg1-1+b1) date 2021-10-13 02:01:55*
%MOMM*%
%LPD*%
G01*
G04 APERTURE LIST*
%TA.AperFunction,Profile*%
%ADD10C,0.050000*%
%TD*%
%ADD11C,0.200000*%
%ADD12C,0.300000*%
G04 APERTURE END LIST*
D10*
X14859000Y-7747000D02*
X14859000Y-4572000D01*
X19177000Y-7747000D02*
X14859000Y-7747000D01*
X19177000Y-4572000D02*
X19177000Y-7747000D01*
X14859000Y-4572000D02*
X19177000Y-4572000D01*
D11*
X15220000Y-5695000D02*
X15260000Y-5735000D01*
X15260000Y-5695000D02*
X15220000Y-5735000D01*
X15474000Y-6330000D02*
X15514000Y-6370000D01*
X15514000Y-6330000D02*
X15474000Y-6370000D01*
X15601000Y-7346000D02*
X15641000Y-7386000D01*
X15641000Y-7346000D02*
X15601000Y-7386000D01*
X15728000Y-5568000D02*
X15768000Y-5608000D01*
X15768000Y-5568000D02*
X15728000Y-5608000D01*
X15982000Y-6457000D02*
X16022000Y-6497000D01*
X16022000Y-6457000D02*
X15982000Y-6497000D01*
X16490000Y-5314000D02*
X16530000Y-5354000D01*
X16530000Y-5314000D02*
X16490000Y-5354000D01*
X16490000Y-5949000D02*
X16530000Y-5989000D01*
X16530000Y-5949000D02*
X16490000Y-5989000D01*
X16871000Y-6838000D02*
X16911000Y-6878000D01*
X16911000Y-6838000D02*
X16871000Y-6878000D01*
X16871000Y-7473000D02*
X16911000Y-7513000D01*
X16911000Y-7473000D02*
X16871000Y-7513000D01*
X16998000Y-5822000D02*
X17038000Y-5862000D01*
X17038000Y-5822000D02*
X16998000Y-5862000D01*
X16998000Y-6203000D02*
X17038000Y-6243000D01*
X17038000Y-6203000D02*
X16998000Y-6243000D01*
X17379000Y-6584000D02*
X17419000Y-6624000D01*
X17419000Y-6584000D02*
X17379000Y-6624000D01*
X17506000Y-6584000D02*
X17546000Y-6624000D01*
X17546000Y-6584000D02*
X17506000Y-6624000D01*
X17633000Y-6076000D02*
X17673000Y-6116000D01*
X17673000Y-6076000D02*
X17633000Y-6116000D01*
X17760000Y-7346000D02*
X17800000Y-7386000D01*
X17800000Y-7346000D02*
X17760000Y-7386000D01*
X18141000Y-7219000D02*
X18181000Y-7259000D01*
X18181000Y-7219000D02*
X18141000Y-7259000D01*
X18268000Y-5060000D02*
X18308000Y-5100000D01*
X18308000Y-5060000D02*
X18268000Y-5100000D01*
X18268000Y-6203000D02*
X18308000Y-6243000D01*
X18308000Y-6203000D02*
X18268000Y-6243000D01*
X18268000Y-6965000D02*
X18308000Y-7005000D01*
X18308000Y-6965000D02*
X18268000Y-7005000D01*
X18776000Y-5695000D02*
X18816000Y-5735000D01*
X18816000Y-5695000D02*
X18776000Y-5735000D01*
X17942000Y-7239000D02*
G75*
G03*
X17942000Y-7239000I-35000J0D01*
G01*
X18196000Y-5588000D02*
G75*
G03*
X18196000Y-5588000I-35000J0D01*
G01*
X18196000Y-5842000D02*
G75*
G03*
X18196000Y-5842000I-35000J0D01*
G01*
X18450000Y-7239000D02*
G75*
G03*
X18450000Y-7239000I-35000J0D01*
G01*
X18958000Y-5588000D02*
G75*
G03*
X18958000Y-5588000I-35000J0D01*
G01*
X18958000Y-5842000D02*
G75*
G03*
X18958000Y-5842000I-35000J0D01*
G01*
X16002000Y-5675000D02*
X16002000Y-5755000D01*
X15962000Y-5715000D02*
X16042000Y-5715000D01*
X16002000Y-6691000D02*
X16002000Y-6771000D01*
X15962000Y-6731000D02*
X16042000Y-6731000D01*
X16891000Y-5548000D02*
X16891000Y-5628000D01*
X16851000Y-5588000D02*
X16931000Y-5588000D01*
X17907000Y-5548000D02*
X17907000Y-5628000D01*
X17867000Y-5588000D02*
X17947000Y-5588000D01*
X18161000Y-6564000D02*
X18161000Y-6644000D01*
X18121000Y-6604000D02*
X18201000Y-6604000D01*
X18415000Y-6564000D02*
X18415000Y-6644000D01*
X18375000Y-6604000D02*
X18455000Y-6604000D01*
X18669000Y-6564000D02*
X18669000Y-6644000D01*
X18629000Y-6604000D02*
X18709000Y-6604000D01*
X16541820Y-6254820D02*
X16541820Y-6191180D01*
X16478180Y-6191180D01*
X16478180Y-6254820D01*
X16541820Y-6254820D01*
X16541820Y-6508820D02*
X16541820Y-6445180D01*
X16478180Y-6445180D01*
X16478180Y-6508820D01*
X16541820Y-6508820D01*
X15494000Y-5892000D02*
X15544000Y-5842000D01*
X15494000Y-5792000D01*
X15444000Y-5842000D01*
X15494000Y-5892000D01*
X15494000Y-6146000D02*
X15544000Y-6096000D01*
X15494000Y-6046000D01*
X15444000Y-6096000D01*
X15494000Y-6146000D01*
X15494000Y-6654000D02*
X15544000Y-6604000D01*
X15494000Y-6554000D01*
X15444000Y-6604000D01*
X15494000Y-6654000D01*
X15494000Y-6908000D02*
X15544000Y-6858000D01*
X15494000Y-6808000D01*
X15444000Y-6858000D01*
X15494000Y-6908000D01*
X15494000Y-7162000D02*
X15544000Y-7112000D01*
X15494000Y-7062000D01*
X15444000Y-7112000D01*
X15494000Y-7162000D01*
X16383000Y-5257000D02*
X16433000Y-5207000D01*
X16383000Y-5157000D01*
X16333000Y-5207000D01*
X16383000Y-5257000D01*
X16637000Y-5257000D02*
X16687000Y-5207000D01*
X16637000Y-5157000D01*
X16587000Y-5207000D01*
X16637000Y-5257000D01*
X16891000Y-5257000D02*
X16941000Y-5207000D01*
X16891000Y-5157000D01*
X16841000Y-5207000D01*
X16891000Y-5257000D01*
X17399000Y-5257000D02*
X17449000Y-5207000D01*
X17399000Y-5157000D01*
X17349000Y-5207000D01*
X17399000Y-5257000D01*
X17653000Y-5257000D02*
X17703000Y-5207000D01*
X17653000Y-5157000D01*
X17603000Y-5207000D01*
X17653000Y-5257000D01*
X17907000Y-5257000D02*
X17957000Y-5207000D01*
X17907000Y-5157000D01*
X17857000Y-5207000D01*
X17907000Y-5257000D01*
D12*
X14895428Y-8215214D02*
X14895428Y-7915214D01*
X14966857Y-7915214D01*
X15009714Y-7929500D01*
X15038286Y-7958071D01*
X15052571Y-7986643D01*
X15066857Y-8043786D01*
X15066857Y-8086643D01*
X15052571Y-8143786D01*
X15038286Y-8172357D01*
X15009714Y-8200929D01*
X14966857Y-8215214D01*
X14895428Y-8215214D01*
X15195428Y-8215214D02*
X15195428Y-8015214D01*
X15195428Y-8072357D02*
X15209714Y-8043786D01*
X15224000Y-8029500D01*
X15252571Y-8015214D01*
X15281143Y-8015214D01*
X15381143Y-8215214D02*
X15381143Y-8015214D01*
X15381143Y-7915214D02*
X15366857Y-7929500D01*
X15381143Y-7943786D01*
X15395428Y-7929500D01*
X15381143Y-7915214D01*
X15381143Y-7943786D01*
X15566857Y-8215214D02*
X15538286Y-8200929D01*
X15524000Y-8172357D01*
X15524000Y-7915214D01*
X15724000Y-8215214D02*
X15695428Y-8200929D01*
X15681143Y-8172357D01*
X15681143Y-7915214D01*
X16066857Y-8215214D02*
X16066857Y-7915214D01*
X16166857Y-8129500D01*
X16266857Y-7915214D01*
X16266857Y-8215214D01*
X16538286Y-8215214D02*
X16538286Y-8058071D01*
X16524000Y-8029500D01*
X16495428Y-8015214D01*
X16438286Y-8015214D01*
X16409714Y-8029500D01*
X16538286Y-8200929D02*
X16509714Y-8215214D01*
X16438286Y-8215214D01*
X16409714Y-8200929D01*
X16395428Y-8172357D01*
X16395428Y-8143786D01*
X16409714Y-8115214D01*
X16438286Y-8100929D01*
X16509714Y-8100929D01*
X16538286Y-8086643D01*
X16681143Y-8015214D02*
X16681143Y-8315214D01*
X16681143Y-8029500D02*
X16709714Y-8015214D01*
X16766857Y-8015214D01*
X16795429Y-8029500D01*
X16809714Y-8043786D01*
X16824000Y-8072357D01*
X16824000Y-8158071D01*
X16809714Y-8186643D01*
X16795429Y-8200929D01*
X16766857Y-8215214D01*
X16709714Y-8215214D01*
X16681143Y-8200929D01*
X16952571Y-8186643D02*
X16966857Y-8200929D01*
X16952571Y-8215214D01*
X16938286Y-8200929D01*
X16952571Y-8186643D01*
X16952571Y-8215214D01*
X16952571Y-8029500D02*
X16966857Y-8043786D01*
X16952571Y-8058071D01*
X16938286Y-8043786D01*
X16952571Y-8029500D01*
X16952571Y-8058071D01*
X14569000Y-8689500D02*
X14609000Y-8729500D01*
X14609000Y-8689500D02*
X14569000Y-8729500D01*
X14952571Y-8545214D02*
X14981143Y-8545214D01*
X15009714Y-8559500D01*
X15024000Y-8573786D01*
X15038286Y-8602357D01*
X15052571Y-8659500D01*
X15052571Y-8730929D01*
X15038286Y-8788072D01*
X15024000Y-8816643D01*
X15009714Y-8830929D01*
X14981143Y-8845214D01*
X14952571Y-8845214D01*
X14924000Y-8830929D01*
X14909714Y-8816643D01*
X14895428Y-8788072D01*
X14881143Y-8730929D01*
X14881143Y-8659500D01*
X14895428Y-8602357D01*
X14909714Y-8573786D01*
X14924000Y-8559500D01*
X14952571Y-8545214D01*
X15181143Y-8816643D02*
X15195428Y-8830929D01*
X15181143Y-8845214D01*
X15166857Y-8830929D01*
X15181143Y-8816643D01*
X15181143Y-8845214D01*
X15452571Y-8645214D02*
X15452571Y-8845214D01*
X15381143Y-8530929D02*
X15309714Y-8745214D01*
X15495428Y-8745214D01*
X15666857Y-8545214D02*
X15695428Y-8545214D01*
X15724000Y-8559500D01*
X15738286Y-8573786D01*
X15752571Y-8602357D01*
X15766857Y-8659500D01*
X15766857Y-8730929D01*
X15752571Y-8788072D01*
X15738286Y-8816643D01*
X15724000Y-8830929D01*
X15695428Y-8845214D01*
X15666857Y-8845214D01*
X15638286Y-8830929D01*
X15624000Y-8816643D01*
X15609714Y-8788072D01*
X15595428Y-8730929D01*
X15595428Y-8659500D01*
X15609714Y-8602357D01*
X15624000Y-8573786D01*
X15638286Y-8559500D01*
X15666857Y-8545214D01*
X15952571Y-8545214D02*
X15981143Y-8545214D01*
X16009714Y-8559500D01*
X16024000Y-8573786D01*
X16038286Y-8602357D01*
X16052571Y-8659500D01*
X16052571Y-8730929D01*
X16038286Y-8788072D01*
X16024000Y-8816643D01*
X16009714Y-8830929D01*
X15981143Y-8845214D01*
X15952571Y-8845214D01*
X15924000Y-8830929D01*
X15909714Y-8816643D01*
X15895428Y-8788072D01*
X15881143Y-8730929D01*
X15881143Y-8659500D01*
X15895428Y-8602357D01*
X15909714Y-8573786D01*
X15924000Y-8559500D01*
X15952571Y-8545214D01*
X16181143Y-8845214D02*
X16181143Y-8645214D01*
X16181143Y-8673786D02*
X16195428Y-8659500D01*
X16224000Y-8645214D01*
X16266857Y-8645214D01*
X16295428Y-8659500D01*
X16309714Y-8688072D01*
X16309714Y-8845214D01*
X16309714Y-8688072D02*
X16324000Y-8659500D01*
X16352571Y-8645214D01*
X16395428Y-8645214D01*
X16424000Y-8659500D01*
X16438286Y-8688072D01*
X16438286Y-8845214D01*
X16581143Y-8845214D02*
X16581143Y-8645214D01*
X16581143Y-8673786D02*
X16595428Y-8659500D01*
X16624000Y-8645214D01*
X16666857Y-8645214D01*
X16695428Y-8659500D01*
X16709714Y-8688072D01*
X16709714Y-8845214D01*
X16709714Y-8688072D02*
X16724000Y-8659500D01*
X16752571Y-8645214D01*
X16795429Y-8645214D01*
X16824000Y-8659500D01*
X16838286Y-8688072D01*
X16838286Y-8845214D01*
X17424000Y-8530929D02*
X17166857Y-8916643D01*
X17809714Y-8545214D02*
X17838286Y-8545214D01*
X17866857Y-8559500D01*
X17881143Y-8573786D01*
X17895429Y-8602357D01*
X17909714Y-8659500D01*
X17909714Y-8730929D01*
X17895429Y-8788072D01*
X17881143Y-8816643D01*
X17866857Y-8830929D01*
X17838286Y-8845214D01*
X17809714Y-8845214D01*
X17781143Y-8830929D01*
X17766857Y-8816643D01*
X17752571Y-8788072D01*
X17738286Y-8730929D01*
X17738286Y-8659500D01*
X17752571Y-8602357D01*
X17766857Y-8573786D01*
X17781143Y-8559500D01*
X17809714Y-8545214D01*
X18038286Y-8816643D02*
X18052571Y-8830929D01*
X18038286Y-8845214D01*
X18024000Y-8830929D01*
X18038286Y-8816643D01*
X18038286Y-8845214D01*
X18238286Y-8545214D02*
X18266857Y-8545214D01*
X18295429Y-8559500D01*
X18309714Y-8573786D01*
X18324000Y-8602357D01*
X18338286Y-8659500D01*
X18338286Y-8730929D01*
X18324000Y-8788072D01*
X18309714Y-8816643D01*
X18295429Y-8830929D01*
X18266857Y-8845214D01*
X18238286Y-8845214D01*
X18209714Y-8830929D01*
X18195429Y-8816643D01*
X18181143Y-8788072D01*
X18166857Y-8730929D01*
X18166857Y-8659500D01*
X18181143Y-8602357D01*
X18195429Y-8573786D01*
X18209714Y-8559500D01*
X18238286Y-8545214D01*
X18624000Y-8845214D02*
X18452571Y-8845214D01*
X18538286Y-8845214D02*
X18538286Y-8545214D01*
X18509714Y-8588072D01*
X18481143Y-8616643D01*
X18452571Y-8630929D01*
X18895429Y-8545214D02*
X18752571Y-8545214D01*
X18738286Y-8688072D01*
X18752571Y-8673786D01*
X18781143Y-8659500D01*
X18852571Y-8659500D01*
X18881143Y-8673786D01*
X18895429Y-8688072D01*
X18909714Y-8716643D01*
X18909714Y-8788072D01*
X18895429Y-8816643D01*
X18881143Y-8830929D01*
X18852571Y-8845214D01*
X18781143Y-8845214D01*
X18752571Y-8830929D01*
X18738286Y-8816643D01*
X19009714Y-8545214D02*
X19209714Y-8545214D01*
X19081143Y-8845214D01*
X19309714Y-8545214D02*
X19309714Y-8602357D01*
X19424000Y-8545214D02*
X19424000Y-8602357D01*
X19866857Y-8959500D02*
X19852571Y-8945214D01*
X19824000Y-8902357D01*
X19809714Y-8873786D01*
X19795429Y-8830929D01*
X19781143Y-8759500D01*
X19781143Y-8702357D01*
X19795429Y-8630929D01*
X19809714Y-8588072D01*
X19824000Y-8559500D01*
X19852571Y-8516643D01*
X19866857Y-8502357D01*
X19966857Y-8573786D02*
X19981143Y-8559500D01*
X20009714Y-8545214D01*
X20081143Y-8545214D01*
X20109714Y-8559500D01*
X20124000Y-8573786D01*
X20138286Y-8602357D01*
X20138286Y-8630929D01*
X20124000Y-8673786D01*
X19952571Y-8845214D01*
X20138286Y-8845214D01*
X20324000Y-8545214D02*
X20352571Y-8545214D01*
X20381143Y-8559500D01*
X20395429Y-8573786D01*
X20409714Y-8602357D01*
X20424000Y-8659500D01*
X20424000Y-8730929D01*
X20409714Y-8788072D01*
X20395429Y-8816643D01*
X20381143Y-8830929D01*
X20352571Y-8845214D01*
X20324000Y-8845214D01*
X20295429Y-8830929D01*
X20281143Y-8816643D01*
X20266857Y-8788072D01*
X20252571Y-8730929D01*
X20252571Y-8659500D01*
X20266857Y-8602357D01*
X20281143Y-8573786D01*
X20295429Y-8559500D01*
X20324000Y-8545214D01*
X20781143Y-8845214D02*
X20781143Y-8545214D01*
X20909714Y-8845214D02*
X20909714Y-8688072D01*
X20895429Y-8659500D01*
X20866857Y-8645214D01*
X20824000Y-8645214D01*
X20795429Y-8659500D01*
X20781143Y-8673786D01*
X21095429Y-8845214D02*
X21066857Y-8830929D01*
X21052571Y-8816643D01*
X21038286Y-8788072D01*
X21038286Y-8702357D01*
X21052571Y-8673786D01*
X21066857Y-8659500D01*
X21095429Y-8645214D01*
X21138286Y-8645214D01*
X21166857Y-8659500D01*
X21181143Y-8673786D01*
X21195429Y-8702357D01*
X21195429Y-8788072D01*
X21181143Y-8816643D01*
X21166857Y-8830929D01*
X21138286Y-8845214D01*
X21095429Y-8845214D01*
X21366857Y-8845214D02*
X21338286Y-8830929D01*
X21324000Y-8802357D01*
X21324000Y-8545214D01*
X21595429Y-8830929D02*
X21566857Y-8845214D01*
X21509714Y-8845214D01*
X21481143Y-8830929D01*
X21466857Y-8802357D01*
X21466857Y-8688072D01*
X21481143Y-8659500D01*
X21509714Y-8645214D01*
X21566857Y-8645214D01*
X21595429Y-8659500D01*
X21609714Y-8688072D01*
X21609714Y-8716643D01*
X21466857Y-8745214D01*
X21724000Y-8830929D02*
X21752571Y-8845214D01*
X21809714Y-8845214D01*
X21838286Y-8830929D01*
X21852571Y-8802357D01*
X21852571Y-8788072D01*
X21838286Y-8759500D01*
X21809714Y-8745214D01*
X21766857Y-8745214D01*
X21738286Y-8730929D01*
X21724000Y-8702357D01*
X21724000Y-8688072D01*
X21738286Y-8659500D01*
X21766857Y-8645214D01*
X21809714Y-8645214D01*
X21838286Y-8659500D01*
X21952571Y-8959500D02*
X21966857Y-8945214D01*
X21995429Y-8902357D01*
X22009714Y-8873786D01*
X22024000Y-8830929D01*
X22038286Y-8759500D01*
X22038286Y-8702357D01*
X22024000Y-8630929D01*
X22009714Y-8588072D01*
X21995429Y-8559500D01*
X21966857Y-8516643D01*
X21952571Y-8502357D01*
X14609000Y-9105500D02*
G75*
G03*
X14609000Y-9105500I-35000J0D01*
G01*
X14952571Y-8941214D02*
X14981143Y-8941214D01*
X15009714Y-8955500D01*
X15024000Y-8969786D01*
X15038286Y-8998357D01*
X15052571Y-9055500D01*
X15052571Y-9126929D01*
X15038286Y-9184072D01*
X15024000Y-9212643D01*
X15009714Y-9226929D01*
X14981143Y-9241214D01*
X14952571Y-9241214D01*
X14924000Y-9226929D01*
X14909714Y-9212643D01*
X14895428Y-9184072D01*
X14881143Y-9126929D01*
X14881143Y-9055500D01*
X14895428Y-8998357D01*
X14909714Y-8969786D01*
X14924000Y-8955500D01*
X14952571Y-8941214D01*
X15181143Y-9212643D02*
X15195428Y-9226929D01*
X15181143Y-9241214D01*
X15166857Y-9226929D01*
X15181143Y-9212643D01*
X15181143Y-9241214D01*
X15295428Y-8941214D02*
X15495428Y-8941214D01*
X15366857Y-9241214D01*
X15666857Y-8941214D02*
X15695428Y-8941214D01*
X15724000Y-8955500D01*
X15738286Y-8969786D01*
X15752571Y-8998357D01*
X15766857Y-9055500D01*
X15766857Y-9126929D01*
X15752571Y-9184072D01*
X15738286Y-9212643D01*
X15724000Y-9226929D01*
X15695428Y-9241214D01*
X15666857Y-9241214D01*
X15638286Y-9226929D01*
X15624000Y-9212643D01*
X15609714Y-9184072D01*
X15595428Y-9126929D01*
X15595428Y-9055500D01*
X15609714Y-8998357D01*
X15624000Y-8969786D01*
X15638286Y-8955500D01*
X15666857Y-8941214D01*
X15952571Y-8941214D02*
X15981143Y-8941214D01*
X16009714Y-8955500D01*
X16024000Y-8969786D01*
X16038286Y-8998357D01*
X16052571Y-9055500D01*
X16052571Y-9126929D01*
X16038286Y-9184072D01*
X16024000Y-9212643D01*
X16009714Y-9226929D01*
X15981143Y-9241214D01*
X15952571Y-9241214D01*
X15924000Y-9226929D01*
X15909714Y-9212643D01*
X15895428Y-9184072D01*
X15881143Y-9126929D01*
X15881143Y-9055500D01*
X15895428Y-8998357D01*
X15909714Y-8969786D01*
X15924000Y-8955500D01*
X15952571Y-8941214D01*
X16181143Y-9241214D02*
X16181143Y-9041214D01*
X16181143Y-9069786D02*
X16195428Y-9055500D01*
X16224000Y-9041214D01*
X16266857Y-9041214D01*
X16295428Y-9055500D01*
X16309714Y-9084072D01*
X16309714Y-9241214D01*
X16309714Y-9084072D02*
X16324000Y-9055500D01*
X16352571Y-9041214D01*
X16395428Y-9041214D01*
X16424000Y-9055500D01*
X16438286Y-9084072D01*
X16438286Y-9241214D01*
X16581143Y-9241214D02*
X16581143Y-9041214D01*
X16581143Y-9069786D02*
X16595428Y-9055500D01*
X16624000Y-9041214D01*
X16666857Y-9041214D01*
X16695428Y-9055500D01*
X16709714Y-9084072D01*
X16709714Y-9241214D01*
X16709714Y-9084072D02*
X16724000Y-9055500D01*
X16752571Y-9041214D01*
X16795429Y-9041214D01*
X16824000Y-9055500D01*
X16838286Y-9084072D01*
X16838286Y-9241214D01*
X17424000Y-8926929D02*
X17166857Y-9312643D01*
X17809714Y-8941214D02*
X17838286Y-8941214D01*
X17866857Y-8955500D01*
X17881143Y-8969786D01*
X17895429Y-8998357D01*
X17909714Y-9055500D01*
X17909714Y-9126929D01*
X17895429Y-9184072D01*
X17881143Y-9212643D01*
X17866857Y-9226929D01*
X17838286Y-9241214D01*
X17809714Y-9241214D01*
X17781143Y-9226929D01*
X17766857Y-9212643D01*
X17752571Y-9184072D01*
X17738286Y-9126929D01*
X17738286Y-9055500D01*
X17752571Y-8998357D01*
X17766857Y-8969786D01*
X17781143Y-8955500D01*
X17809714Y-8941214D01*
X18038286Y-9212643D02*
X18052571Y-9226929D01*
X18038286Y-9241214D01*
X18024000Y-9226929D01*
X18038286Y-9212643D01*
X18038286Y-9241214D01*
X18238286Y-8941214D02*
X18266857Y-8941214D01*
X18295429Y-8955500D01*
X18309714Y-8969786D01*
X18324000Y-8998357D01*
X18338286Y-9055500D01*
X18338286Y-9126929D01*
X18324000Y-9184072D01*
X18309714Y-9212643D01*
X18295429Y-9226929D01*
X18266857Y-9241214D01*
X18238286Y-9241214D01*
X18209714Y-9226929D01*
X18195429Y-9212643D01*
X18181143Y-9184072D01*
X18166857Y-9126929D01*
X18166857Y-9055500D01*
X18181143Y-8998357D01*
X18195429Y-8969786D01*
X18209714Y-8955500D01*
X18238286Y-8941214D01*
X18452571Y-8969786D02*
X18466857Y-8955500D01*
X18495429Y-8941214D01*
X18566857Y-8941214D01*
X18595429Y-8955500D01*
X18609714Y-8969786D01*
X18624000Y-8998357D01*
X18624000Y-9026929D01*
X18609714Y-9069786D01*
X18438286Y-9241214D01*
X18624000Y-9241214D01*
X18724000Y-8941214D02*
X18924000Y-8941214D01*
X18795429Y-9241214D01*
X19166857Y-8941214D02*
X19109714Y-8941214D01*
X19081143Y-8955500D01*
X19066857Y-8969786D01*
X19038286Y-9012643D01*
X19024000Y-9069786D01*
X19024000Y-9184072D01*
X19038286Y-9212643D01*
X19052571Y-9226929D01*
X19081143Y-9241214D01*
X19138286Y-9241214D01*
X19166857Y-9226929D01*
X19181143Y-9212643D01*
X19195429Y-9184072D01*
X19195429Y-9112643D01*
X19181143Y-9084072D01*
X19166857Y-9069786D01*
X19138286Y-9055500D01*
X19081143Y-9055500D01*
X19052571Y-9069786D01*
X19038286Y-9084072D01*
X19024000Y-9112643D01*
X19309714Y-8941214D02*
X19309714Y-8998357D01*
X19424000Y-8941214D02*
X19424000Y-8998357D01*
X19866857Y-9355500D02*
X19852571Y-9341214D01*
X19824000Y-9298357D01*
X19809714Y-9269786D01*
X19795429Y-9226929D01*
X19781143Y-9155500D01*
X19781143Y-9098357D01*
X19795429Y-9026929D01*
X19809714Y-8984072D01*
X19824000Y-8955500D01*
X19852571Y-8912643D01*
X19866857Y-8898357D01*
X20109714Y-8941214D02*
X20052571Y-8941214D01*
X20024000Y-8955500D01*
X20009714Y-8969786D01*
X19981143Y-9012643D01*
X19966857Y-9069786D01*
X19966857Y-9184072D01*
X19981143Y-9212643D01*
X19995429Y-9226929D01*
X20024000Y-9241214D01*
X20081143Y-9241214D01*
X20109714Y-9226929D01*
X20124000Y-9212643D01*
X20138286Y-9184072D01*
X20138286Y-9112643D01*
X20124000Y-9084072D01*
X20109714Y-9069786D01*
X20081143Y-9055500D01*
X20024000Y-9055500D01*
X19995429Y-9069786D01*
X19981143Y-9084072D01*
X19966857Y-9112643D01*
X20495429Y-9241214D02*
X20495429Y-8941214D01*
X20624000Y-9241214D02*
X20624000Y-9084072D01*
X20609714Y-9055500D01*
X20581143Y-9041214D01*
X20538286Y-9041214D01*
X20509714Y-9055500D01*
X20495429Y-9069786D01*
X20809714Y-9241214D02*
X20781143Y-9226929D01*
X20766857Y-9212643D01*
X20752571Y-9184072D01*
X20752571Y-9098357D01*
X20766857Y-9069786D01*
X20781143Y-9055500D01*
X20809714Y-9041214D01*
X20852571Y-9041214D01*
X20881143Y-9055500D01*
X20895429Y-9069786D01*
X20909714Y-9098357D01*
X20909714Y-9184072D01*
X20895429Y-9212643D01*
X20881143Y-9226929D01*
X20852571Y-9241214D01*
X20809714Y-9241214D01*
X21081143Y-9241214D02*
X21052571Y-9226929D01*
X21038286Y-9198357D01*
X21038286Y-8941214D01*
X21309714Y-9226929D02*
X21281143Y-9241214D01*
X21224000Y-9241214D01*
X21195429Y-9226929D01*
X21181143Y-9198357D01*
X21181143Y-9084072D01*
X21195429Y-9055500D01*
X21224000Y-9041214D01*
X21281143Y-9041214D01*
X21309714Y-9055500D01*
X21324000Y-9084072D01*
X21324000Y-9112643D01*
X21181143Y-9141214D01*
X21438286Y-9226929D02*
X21466857Y-9241214D01*
X21524000Y-9241214D01*
X21552571Y-9226929D01*
X21566857Y-9198357D01*
X21566857Y-9184072D01*
X21552571Y-9155500D01*
X21524000Y-9141214D01*
X21481143Y-9141214D01*
X21452571Y-9126929D01*
X21438286Y-9098357D01*
X21438286Y-9084072D01*
X21452571Y-9055500D01*
X21481143Y-9041214D01*
X21524000Y-9041214D01*
X21552571Y-9055500D01*
X21666857Y-9355500D02*
X21681143Y-9341214D01*
X21709714Y-9298357D01*
X21724000Y-9269786D01*
X21738286Y-9226929D01*
X21752571Y-9155500D01*
X21752571Y-9098357D01*
X21738286Y-9026929D01*
X21724000Y-8984072D01*
X21709714Y-8955500D01*
X21681143Y-8912643D01*
X21666857Y-8898357D01*
X14569000Y-9461500D02*
X14569000Y-9541500D01*
X14529000Y-9501500D02*
X14609000Y-9501500D01*
X14952571Y-9337214D02*
X14981143Y-9337214D01*
X15009714Y-9351500D01*
X15024000Y-9365786D01*
X15038286Y-9394357D01*
X15052571Y-9451500D01*
X15052571Y-9522929D01*
X15038286Y-9580072D01*
X15024000Y-9608643D01*
X15009714Y-9622929D01*
X14981143Y-9637214D01*
X14952571Y-9637214D01*
X14924000Y-9622929D01*
X14909714Y-9608643D01*
X14895428Y-9580072D01*
X14881143Y-9522929D01*
X14881143Y-9451500D01*
X14895428Y-9394357D01*
X14909714Y-9365786D01*
X14924000Y-9351500D01*
X14952571Y-9337214D01*
X15181143Y-9608643D02*
X15195428Y-9622929D01*
X15181143Y-9637214D01*
X15166857Y-9622929D01*
X15181143Y-9608643D01*
X15181143Y-9637214D01*
X15366857Y-9465786D02*
X15338286Y-9451500D01*
X15324000Y-9437214D01*
X15309714Y-9408643D01*
X15309714Y-9394357D01*
X15324000Y-9365786D01*
X15338286Y-9351500D01*
X15366857Y-9337214D01*
X15424000Y-9337214D01*
X15452571Y-9351500D01*
X15466857Y-9365786D01*
X15481143Y-9394357D01*
X15481143Y-9408643D01*
X15466857Y-9437214D01*
X15452571Y-9451500D01*
X15424000Y-9465786D01*
X15366857Y-9465786D01*
X15338286Y-9480072D01*
X15324000Y-9494357D01*
X15309714Y-9522929D01*
X15309714Y-9580072D01*
X15324000Y-9608643D01*
X15338286Y-9622929D01*
X15366857Y-9637214D01*
X15424000Y-9637214D01*
X15452571Y-9622929D01*
X15466857Y-9608643D01*
X15481143Y-9580072D01*
X15481143Y-9522929D01*
X15466857Y-9494357D01*
X15452571Y-9480072D01*
X15424000Y-9465786D01*
X15666857Y-9337214D02*
X15695428Y-9337214D01*
X15724000Y-9351500D01*
X15738286Y-9365786D01*
X15752571Y-9394357D01*
X15766857Y-9451500D01*
X15766857Y-9522929D01*
X15752571Y-9580072D01*
X15738286Y-9608643D01*
X15724000Y-9622929D01*
X15695428Y-9637214D01*
X15666857Y-9637214D01*
X15638286Y-9622929D01*
X15624000Y-9608643D01*
X15609714Y-9580072D01*
X15595428Y-9522929D01*
X15595428Y-9451500D01*
X15609714Y-9394357D01*
X15624000Y-9365786D01*
X15638286Y-9351500D01*
X15666857Y-9337214D01*
X15952571Y-9337214D02*
X15981143Y-9337214D01*
X16009714Y-9351500D01*
X16024000Y-9365786D01*
X16038286Y-9394357D01*
X16052571Y-9451500D01*
X16052571Y-9522929D01*
X16038286Y-9580072D01*
X16024000Y-9608643D01*
X16009714Y-9622929D01*
X15981143Y-9637214D01*
X15952571Y-9637214D01*
X15924000Y-9622929D01*
X15909714Y-9608643D01*
X15895428Y-9580072D01*
X15881143Y-9522929D01*
X15881143Y-9451500D01*
X15895428Y-9394357D01*
X15909714Y-9365786D01*
X15924000Y-9351500D01*
X15952571Y-9337214D01*
X16181143Y-9637214D02*
X16181143Y-9437214D01*
X16181143Y-9465786D02*
X16195428Y-9451500D01*
X16224000Y-9437214D01*
X16266857Y-9437214D01*
X16295428Y-9451500D01*
X16309714Y-9480072D01*
X16309714Y-9637214D01*
X16309714Y-9480072D02*
X16324000Y-9451500D01*
X16352571Y-9437214D01*
X16395428Y-9437214D01*
X16424000Y-9451500D01*
X16438286Y-9480072D01*
X16438286Y-9637214D01*
X16581143Y-9637214D02*
X16581143Y-9437214D01*
X16581143Y-9465786D02*
X16595428Y-9451500D01*
X16624000Y-9437214D01*
X16666857Y-9437214D01*
X16695428Y-9451500D01*
X16709714Y-9480072D01*
X16709714Y-9637214D01*
X16709714Y-9480072D02*
X16724000Y-9451500D01*
X16752571Y-9437214D01*
X16795429Y-9437214D01*
X16824000Y-9451500D01*
X16838286Y-9480072D01*
X16838286Y-9637214D01*
X17424000Y-9322929D02*
X17166857Y-9708643D01*
X17809714Y-9337214D02*
X17838286Y-9337214D01*
X17866857Y-9351500D01*
X17881143Y-9365786D01*
X17895429Y-9394357D01*
X17909714Y-9451500D01*
X17909714Y-9522929D01*
X17895429Y-9580072D01*
X17881143Y-9608643D01*
X17866857Y-9622929D01*
X17838286Y-9637214D01*
X17809714Y-9637214D01*
X17781143Y-9622929D01*
X17766857Y-9608643D01*
X17752571Y-9580072D01*
X17738286Y-9522929D01*
X17738286Y-9451500D01*
X17752571Y-9394357D01*
X17766857Y-9365786D01*
X17781143Y-9351500D01*
X17809714Y-9337214D01*
X18038286Y-9608643D02*
X18052571Y-9622929D01*
X18038286Y-9637214D01*
X18024000Y-9622929D01*
X18038286Y-9608643D01*
X18038286Y-9637214D01*
X18238286Y-9337214D02*
X18266857Y-9337214D01*
X18295429Y-9351500D01*
X18309714Y-9365786D01*
X18324000Y-9394357D01*
X18338286Y-9451500D01*
X18338286Y-9522929D01*
X18324000Y-9580072D01*
X18309714Y-9608643D01*
X18295429Y-9622929D01*
X18266857Y-9637214D01*
X18238286Y-9637214D01*
X18209714Y-9622929D01*
X18195429Y-9608643D01*
X18181143Y-9580072D01*
X18166857Y-9522929D01*
X18166857Y-9451500D01*
X18181143Y-9394357D01*
X18195429Y-9365786D01*
X18209714Y-9351500D01*
X18238286Y-9337214D01*
X18438286Y-9337214D02*
X18624000Y-9337214D01*
X18524000Y-9451500D01*
X18566857Y-9451500D01*
X18595429Y-9465786D01*
X18609714Y-9480072D01*
X18624000Y-9508643D01*
X18624000Y-9580072D01*
X18609714Y-9608643D01*
X18595429Y-9622929D01*
X18566857Y-9637214D01*
X18481143Y-9637214D01*
X18452571Y-9622929D01*
X18438286Y-9608643D01*
X18909714Y-9637214D02*
X18738286Y-9637214D01*
X18824000Y-9637214D02*
X18824000Y-9337214D01*
X18795429Y-9380072D01*
X18766857Y-9408643D01*
X18738286Y-9422929D01*
X19181143Y-9337214D02*
X19038286Y-9337214D01*
X19024000Y-9480072D01*
X19038286Y-9465786D01*
X19066857Y-9451500D01*
X19138286Y-9451500D01*
X19166857Y-9465786D01*
X19181143Y-9480072D01*
X19195429Y-9508643D01*
X19195429Y-9580072D01*
X19181143Y-9608643D01*
X19166857Y-9622929D01*
X19138286Y-9637214D01*
X19066857Y-9637214D01*
X19038286Y-9622929D01*
X19024000Y-9608643D01*
X19309714Y-9337214D02*
X19309714Y-9394357D01*
X19424000Y-9337214D02*
X19424000Y-9394357D01*
X19866857Y-9751500D02*
X19852571Y-9737214D01*
X19824000Y-9694357D01*
X19809714Y-9665786D01*
X19795429Y-9622929D01*
X19781143Y-9551500D01*
X19781143Y-9494357D01*
X19795429Y-9422929D01*
X19809714Y-9380072D01*
X19824000Y-9351500D01*
X19852571Y-9308643D01*
X19866857Y-9294357D01*
X19952571Y-9337214D02*
X20152571Y-9337214D01*
X20024000Y-9637214D01*
X20495429Y-9637214D02*
X20495429Y-9337214D01*
X20624000Y-9637214D02*
X20624000Y-9480072D01*
X20609714Y-9451500D01*
X20581143Y-9437214D01*
X20538286Y-9437214D01*
X20509714Y-9451500D01*
X20495429Y-9465786D01*
X20809714Y-9637214D02*
X20781143Y-9622929D01*
X20766857Y-9608643D01*
X20752571Y-9580072D01*
X20752571Y-9494357D01*
X20766857Y-9465786D01*
X20781143Y-9451500D01*
X20809714Y-9437214D01*
X20852571Y-9437214D01*
X20881143Y-9451500D01*
X20895429Y-9465786D01*
X20909714Y-9494357D01*
X20909714Y-9580072D01*
X20895429Y-9608643D01*
X20881143Y-9622929D01*
X20852571Y-9637214D01*
X20809714Y-9637214D01*
X21081143Y-9637214D02*
X21052571Y-9622929D01*
X21038286Y-9594357D01*
X21038286Y-9337214D01*
X21309714Y-9622929D02*
X21281143Y-9637214D01*
X21224000Y-9637214D01*
X21195429Y-9622929D01*
X21181143Y-9594357D01*
X21181143Y-9480072D01*
X21195429Y-9451500D01*
X21224000Y-9437214D01*
X21281143Y-9437214D01*
X21309714Y-9451500D01*
X21324000Y-9480072D01*
X21324000Y-9508643D01*
X21181143Y-9537214D01*
X21438286Y-9622929D02*
X21466857Y-9637214D01*
X21524000Y-9637214D01*
X21552571Y-9622929D01*
X21566857Y-9594357D01*
X21566857Y-9580072D01*
X21552571Y-9551500D01*
X21524000Y-9537214D01*
X21481143Y-9537214D01*
X21452571Y-9522929D01*
X21438286Y-9494357D01*
X21438286Y-9480072D01*
X21452571Y-9451500D01*
X21481143Y-9437214D01*
X21524000Y-9437214D01*
X21552571Y-9451500D01*
X21666857Y-9751500D02*
X21681143Y-9737214D01*
X21709714Y-9694357D01*
X21724000Y-9665786D01*
X21738286Y-9622929D01*
X21752571Y-9551500D01*
X21752571Y-9494357D01*
X21738286Y-9422929D01*
X21724000Y-9380072D01*
X21709714Y-9351500D01*
X21681143Y-9308643D01*
X21666857Y-9294357D01*
X14595820Y-9929320D02*
X14595820Y-9865680D01*
X14532180Y-9865680D01*
X14532180Y-9929320D01*
X14595820Y-9929320D01*
X14952571Y-9733214D02*
X14981143Y-9733214D01*
X15009714Y-9747500D01*
X15024000Y-9761786D01*
X15038286Y-9790357D01*
X15052571Y-9847500D01*
X15052571Y-9918929D01*
X15038286Y-9976072D01*
X15024000Y-10004643D01*
X15009714Y-10018929D01*
X14981143Y-10033214D01*
X14952571Y-10033214D01*
X14924000Y-10018929D01*
X14909714Y-10004643D01*
X14895428Y-9976072D01*
X14881143Y-9918929D01*
X14881143Y-9847500D01*
X14895428Y-9790357D01*
X14909714Y-9761786D01*
X14924000Y-9747500D01*
X14952571Y-9733214D01*
X15181143Y-10004643D02*
X15195428Y-10018929D01*
X15181143Y-10033214D01*
X15166857Y-10018929D01*
X15181143Y-10004643D01*
X15181143Y-10033214D01*
X15338286Y-10033214D02*
X15395428Y-10033214D01*
X15424000Y-10018929D01*
X15438286Y-10004643D01*
X15466857Y-9961786D01*
X15481143Y-9904643D01*
X15481143Y-9790357D01*
X15466857Y-9761786D01*
X15452571Y-9747500D01*
X15424000Y-9733214D01*
X15366857Y-9733214D01*
X15338286Y-9747500D01*
X15324000Y-9761786D01*
X15309714Y-9790357D01*
X15309714Y-9861786D01*
X15324000Y-9890357D01*
X15338286Y-9904643D01*
X15366857Y-9918929D01*
X15424000Y-9918929D01*
X15452571Y-9904643D01*
X15466857Y-9890357D01*
X15481143Y-9861786D01*
X15666857Y-9733214D02*
X15695428Y-9733214D01*
X15724000Y-9747500D01*
X15738286Y-9761786D01*
X15752571Y-9790357D01*
X15766857Y-9847500D01*
X15766857Y-9918929D01*
X15752571Y-9976072D01*
X15738286Y-10004643D01*
X15724000Y-10018929D01*
X15695428Y-10033214D01*
X15666857Y-10033214D01*
X15638286Y-10018929D01*
X15624000Y-10004643D01*
X15609714Y-9976072D01*
X15595428Y-9918929D01*
X15595428Y-9847500D01*
X15609714Y-9790357D01*
X15624000Y-9761786D01*
X15638286Y-9747500D01*
X15666857Y-9733214D01*
X15952571Y-9733214D02*
X15981143Y-9733214D01*
X16009714Y-9747500D01*
X16024000Y-9761786D01*
X16038286Y-9790357D01*
X16052571Y-9847500D01*
X16052571Y-9918929D01*
X16038286Y-9976072D01*
X16024000Y-10004643D01*
X16009714Y-10018929D01*
X15981143Y-10033214D01*
X15952571Y-10033214D01*
X15924000Y-10018929D01*
X15909714Y-10004643D01*
X15895428Y-9976072D01*
X15881143Y-9918929D01*
X15881143Y-9847500D01*
X15895428Y-9790357D01*
X15909714Y-9761786D01*
X15924000Y-9747500D01*
X15952571Y-9733214D01*
X16181143Y-10033214D02*
X16181143Y-9833214D01*
X16181143Y-9861786D02*
X16195428Y-9847500D01*
X16224000Y-9833214D01*
X16266857Y-9833214D01*
X16295428Y-9847500D01*
X16309714Y-9876072D01*
X16309714Y-10033214D01*
X16309714Y-9876072D02*
X16324000Y-9847500D01*
X16352571Y-9833214D01*
X16395428Y-9833214D01*
X16424000Y-9847500D01*
X16438286Y-9876072D01*
X16438286Y-10033214D01*
X16581143Y-10033214D02*
X16581143Y-9833214D01*
X16581143Y-9861786D02*
X16595428Y-9847500D01*
X16624000Y-9833214D01*
X16666857Y-9833214D01*
X16695428Y-9847500D01*
X16709714Y-9876072D01*
X16709714Y-10033214D01*
X16709714Y-9876072D02*
X16724000Y-9847500D01*
X16752571Y-9833214D01*
X16795429Y-9833214D01*
X16824000Y-9847500D01*
X16838286Y-9876072D01*
X16838286Y-10033214D01*
X17424000Y-9718929D02*
X17166857Y-10104643D01*
X17809714Y-9733214D02*
X17838286Y-9733214D01*
X17866857Y-9747500D01*
X17881143Y-9761786D01*
X17895429Y-9790357D01*
X17909714Y-9847500D01*
X17909714Y-9918929D01*
X17895429Y-9976072D01*
X17881143Y-10004643D01*
X17866857Y-10018929D01*
X17838286Y-10033214D01*
X17809714Y-10033214D01*
X17781143Y-10018929D01*
X17766857Y-10004643D01*
X17752571Y-9976072D01*
X17738286Y-9918929D01*
X17738286Y-9847500D01*
X17752571Y-9790357D01*
X17766857Y-9761786D01*
X17781143Y-9747500D01*
X17809714Y-9733214D01*
X18038286Y-10004643D02*
X18052571Y-10018929D01*
X18038286Y-10033214D01*
X18024000Y-10018929D01*
X18038286Y-10004643D01*
X18038286Y-10033214D01*
X18238286Y-9733214D02*
X18266857Y-9733214D01*
X18295429Y-9747500D01*
X18309714Y-9761786D01*
X18324000Y-9790357D01*
X18338286Y-9847500D01*
X18338286Y-9918929D01*
X18324000Y-9976072D01*
X18309714Y-10004643D01*
X18295429Y-10018929D01*
X18266857Y-10033214D01*
X18238286Y-10033214D01*
X18209714Y-10018929D01*
X18195429Y-10004643D01*
X18181143Y-9976072D01*
X18166857Y-9918929D01*
X18166857Y-9847500D01*
X18181143Y-9790357D01*
X18195429Y-9761786D01*
X18209714Y-9747500D01*
X18238286Y-9733214D01*
X18438286Y-9733214D02*
X18624000Y-9733214D01*
X18524000Y-9847500D01*
X18566857Y-9847500D01*
X18595429Y-9861786D01*
X18609714Y-9876072D01*
X18624000Y-9904643D01*
X18624000Y-9976072D01*
X18609714Y-10004643D01*
X18595429Y-10018929D01*
X18566857Y-10033214D01*
X18481143Y-10033214D01*
X18452571Y-10018929D01*
X18438286Y-10004643D01*
X18895429Y-9733214D02*
X18752571Y-9733214D01*
X18738286Y-9876072D01*
X18752571Y-9861786D01*
X18781143Y-9847500D01*
X18852571Y-9847500D01*
X18881143Y-9861786D01*
X18895429Y-9876072D01*
X18909714Y-9904643D01*
X18909714Y-9976072D01*
X18895429Y-10004643D01*
X18881143Y-10018929D01*
X18852571Y-10033214D01*
X18781143Y-10033214D01*
X18752571Y-10018929D01*
X18738286Y-10004643D01*
X19166857Y-9833214D02*
X19166857Y-10033214D01*
X19095429Y-9718929D02*
X19024000Y-9933214D01*
X19209714Y-9933214D01*
X19309714Y-9733214D02*
X19309714Y-9790357D01*
X19424000Y-9733214D02*
X19424000Y-9790357D01*
X19866857Y-10147500D02*
X19852571Y-10133214D01*
X19824000Y-10090357D01*
X19809714Y-10061786D01*
X19795429Y-10018929D01*
X19781143Y-9947500D01*
X19781143Y-9890357D01*
X19795429Y-9818929D01*
X19809714Y-9776072D01*
X19824000Y-9747500D01*
X19852571Y-9704643D01*
X19866857Y-9690357D01*
X19966857Y-9761786D02*
X19981143Y-9747500D01*
X20009714Y-9733214D01*
X20081143Y-9733214D01*
X20109714Y-9747500D01*
X20124000Y-9761786D01*
X20138286Y-9790357D01*
X20138286Y-9818929D01*
X20124000Y-9861786D01*
X19952571Y-10033214D01*
X20138286Y-10033214D01*
X20495429Y-10033214D02*
X20495429Y-9733214D01*
X20624000Y-10033214D02*
X20624000Y-9876072D01*
X20609714Y-9847500D01*
X20581143Y-9833214D01*
X20538286Y-9833214D01*
X20509714Y-9847500D01*
X20495429Y-9861786D01*
X20809714Y-10033214D02*
X20781143Y-10018929D01*
X20766857Y-10004643D01*
X20752571Y-9976072D01*
X20752571Y-9890357D01*
X20766857Y-9861786D01*
X20781143Y-9847500D01*
X20809714Y-9833214D01*
X20852571Y-9833214D01*
X20881143Y-9847500D01*
X20895429Y-9861786D01*
X20909714Y-9890357D01*
X20909714Y-9976072D01*
X20895429Y-10004643D01*
X20881143Y-10018929D01*
X20852571Y-10033214D01*
X20809714Y-10033214D01*
X21081143Y-10033214D02*
X21052571Y-10018929D01*
X21038286Y-9990357D01*
X21038286Y-9733214D01*
X21309714Y-10018929D02*
X21281143Y-10033214D01*
X21224000Y-10033214D01*
X21195429Y-10018929D01*
X21181143Y-9990357D01*
X21181143Y-9876072D01*
X21195429Y-9847500D01*
X21224000Y-9833214D01*
X21281143Y-9833214D01*
X21309714Y-9847500D01*
X21324000Y-9876072D01*
X21324000Y-9904643D01*
X21181143Y-9933214D01*
X21438286Y-10018929D02*
X21466857Y-10033214D01*
X21524000Y-10033214D01*
X21552571Y-10018929D01*
X21566857Y-9990357D01*
X21566857Y-9976072D01*
X21552571Y-9947500D01*
X21524000Y-9933214D01*
X21481143Y-9933214D01*
X21452571Y-9918929D01*
X21438286Y-9890357D01*
X21438286Y-9876072D01*
X21452571Y-9847500D01*
X21481143Y-9833214D01*
X21524000Y-9833214D01*
X21552571Y-9847500D01*
X21666857Y-10147500D02*
X21681143Y-10133214D01*
X21709714Y-10090357D01*
X21724000Y-10061786D01*
X21738286Y-10018929D01*
X21752571Y-9947500D01*
X21752571Y-9890357D01*
X21738286Y-9818929D01*
X21724000Y-9776072D01*
X21709714Y-9747500D01*
X21681143Y-9704643D01*
X21666857Y-9690357D01*
X14559000Y-10343500D02*
X14609000Y-10293500D01*
X14559000Y-10243500D01*
X14509000Y-10293500D01*
X14559000Y-10343500D01*
X15052571Y-10429214D02*
X14881143Y-10429214D01*
X14966857Y-10429214D02*
X14966857Y-10129214D01*
X14938286Y-10172072D01*
X14909714Y-10200643D01*
X14881143Y-10214929D01*
X15181143Y-10400643D02*
X15195428Y-10414929D01*
X15181143Y-10429214D01*
X15166857Y-10414929D01*
X15181143Y-10400643D01*
X15181143Y-10429214D01*
X15381143Y-10129214D02*
X15409714Y-10129214D01*
X15438286Y-10143500D01*
X15452571Y-10157786D01*
X15466857Y-10186357D01*
X15481143Y-10243500D01*
X15481143Y-10314929D01*
X15466857Y-10372072D01*
X15452571Y-10400643D01*
X15438286Y-10414929D01*
X15409714Y-10429214D01*
X15381143Y-10429214D01*
X15352571Y-10414929D01*
X15338286Y-10400643D01*
X15324000Y-10372072D01*
X15309714Y-10314929D01*
X15309714Y-10243500D01*
X15324000Y-10186357D01*
X15338286Y-10157786D01*
X15352571Y-10143500D01*
X15381143Y-10129214D01*
X15666857Y-10129214D02*
X15695428Y-10129214D01*
X15724000Y-10143500D01*
X15738286Y-10157786D01*
X15752571Y-10186357D01*
X15766857Y-10243500D01*
X15766857Y-10314929D01*
X15752571Y-10372072D01*
X15738286Y-10400643D01*
X15724000Y-10414929D01*
X15695428Y-10429214D01*
X15666857Y-10429214D01*
X15638286Y-10414929D01*
X15624000Y-10400643D01*
X15609714Y-10372072D01*
X15595428Y-10314929D01*
X15595428Y-10243500D01*
X15609714Y-10186357D01*
X15624000Y-10157786D01*
X15638286Y-10143500D01*
X15666857Y-10129214D01*
X15952571Y-10129214D02*
X15981143Y-10129214D01*
X16009714Y-10143500D01*
X16024000Y-10157786D01*
X16038286Y-10186357D01*
X16052571Y-10243500D01*
X16052571Y-10314929D01*
X16038286Y-10372072D01*
X16024000Y-10400643D01*
X16009714Y-10414929D01*
X15981143Y-10429214D01*
X15952571Y-10429214D01*
X15924000Y-10414929D01*
X15909714Y-10400643D01*
X15895428Y-10372072D01*
X15881143Y-10314929D01*
X15881143Y-10243500D01*
X15895428Y-10186357D01*
X15909714Y-10157786D01*
X15924000Y-10143500D01*
X15952571Y-10129214D01*
X16181143Y-10429214D02*
X16181143Y-10229214D01*
X16181143Y-10257786D02*
X16195428Y-10243500D01*
X16224000Y-10229214D01*
X16266857Y-10229214D01*
X16295428Y-10243500D01*
X16309714Y-10272072D01*
X16309714Y-10429214D01*
X16309714Y-10272072D02*
X16324000Y-10243500D01*
X16352571Y-10229214D01*
X16395428Y-10229214D01*
X16424000Y-10243500D01*
X16438286Y-10272072D01*
X16438286Y-10429214D01*
X16581143Y-10429214D02*
X16581143Y-10229214D01*
X16581143Y-10257786D02*
X16595428Y-10243500D01*
X16624000Y-10229214D01*
X16666857Y-10229214D01*
X16695428Y-10243500D01*
X16709714Y-10272072D01*
X16709714Y-10429214D01*
X16709714Y-10272072D02*
X16724000Y-10243500D01*
X16752571Y-10229214D01*
X16795429Y-10229214D01*
X16824000Y-10243500D01*
X16838286Y-10272072D01*
X16838286Y-10429214D01*
X17424000Y-10114929D02*
X17166857Y-10500643D01*
X17809714Y-10129214D02*
X17838286Y-10129214D01*
X17866857Y-10143500D01*
X17881143Y-10157786D01*
X17895429Y-10186357D01*
X17909714Y-10243500D01*
X17909714Y-10314929D01*
X17895429Y-10372072D01*
X17881143Y-10400643D01*
X17866857Y-10414929D01*
X17838286Y-10429214D01*
X17809714Y-10429214D01*
X17781143Y-10414929D01*
X17766857Y-10400643D01*
X17752571Y-10372072D01*
X17738286Y-10314929D01*
X17738286Y-10243500D01*
X17752571Y-10186357D01*
X17766857Y-10157786D01*
X17781143Y-10143500D01*
X17809714Y-10129214D01*
X18038286Y-10400643D02*
X18052571Y-10414929D01*
X18038286Y-10429214D01*
X18024000Y-10414929D01*
X18038286Y-10400643D01*
X18038286Y-10429214D01*
X18238286Y-10129214D02*
X18266857Y-10129214D01*
X18295429Y-10143500D01*
X18309714Y-10157786D01*
X18324000Y-10186357D01*
X18338286Y-10243500D01*
X18338286Y-10314929D01*
X18324000Y-10372072D01*
X18309714Y-10400643D01*
X18295429Y-10414929D01*
X18266857Y-10429214D01*
X18238286Y-10429214D01*
X18209714Y-10414929D01*
X18195429Y-10400643D01*
X18181143Y-10372072D01*
X18166857Y-10314929D01*
X18166857Y-10243500D01*
X18181143Y-10186357D01*
X18195429Y-10157786D01*
X18209714Y-10143500D01*
X18238286Y-10129214D01*
X18438286Y-10129214D02*
X18624000Y-10129214D01*
X18524000Y-10243500D01*
X18566857Y-10243500D01*
X18595429Y-10257786D01*
X18609714Y-10272072D01*
X18624000Y-10300643D01*
X18624000Y-10372072D01*
X18609714Y-10400643D01*
X18595429Y-10414929D01*
X18566857Y-10429214D01*
X18481143Y-10429214D01*
X18452571Y-10414929D01*
X18438286Y-10400643D01*
X18766857Y-10429214D02*
X18824000Y-10429214D01*
X18852571Y-10414929D01*
X18866857Y-10400643D01*
X18895429Y-10357786D01*
X18909714Y-10300643D01*
X18909714Y-10186357D01*
X18895429Y-10157786D01*
X18881143Y-10143500D01*
X18852571Y-10129214D01*
X18795429Y-10129214D01*
X18766857Y-10143500D01*
X18752571Y-10157786D01*
X18738286Y-10186357D01*
X18738286Y-10257786D01*
X18752571Y-10286357D01*
X18766857Y-10300643D01*
X18795429Y-10314929D01*
X18852571Y-10314929D01*
X18881143Y-10300643D01*
X18895429Y-10286357D01*
X18909714Y-10257786D01*
X19166857Y-10229214D02*
X19166857Y-10429214D01*
X19095429Y-10114929D02*
X19024000Y-10329214D01*
X19209714Y-10329214D01*
X19309714Y-10129214D02*
X19309714Y-10186357D01*
X19424000Y-10129214D02*
X19424000Y-10186357D01*
X19866857Y-10543500D02*
X19852571Y-10529214D01*
X19824000Y-10486357D01*
X19809714Y-10457786D01*
X19795429Y-10414929D01*
X19781143Y-10343500D01*
X19781143Y-10286357D01*
X19795429Y-10214929D01*
X19809714Y-10172072D01*
X19824000Y-10143500D01*
X19852571Y-10100643D01*
X19866857Y-10086357D01*
X20138286Y-10429214D02*
X19966857Y-10429214D01*
X20052571Y-10429214D02*
X20052571Y-10129214D01*
X20024000Y-10172072D01*
X19995429Y-10200643D01*
X19966857Y-10214929D01*
X20424000Y-10429214D02*
X20252571Y-10429214D01*
X20338286Y-10429214D02*
X20338286Y-10129214D01*
X20309714Y-10172072D01*
X20281143Y-10200643D01*
X20252571Y-10214929D01*
X20781143Y-10429214D02*
X20781143Y-10129214D01*
X20909714Y-10429214D02*
X20909714Y-10272072D01*
X20895429Y-10243500D01*
X20866857Y-10229214D01*
X20824000Y-10229214D01*
X20795429Y-10243500D01*
X20781143Y-10257786D01*
X21095429Y-10429214D02*
X21066857Y-10414929D01*
X21052571Y-10400643D01*
X21038286Y-10372072D01*
X21038286Y-10286357D01*
X21052571Y-10257786D01*
X21066857Y-10243500D01*
X21095429Y-10229214D01*
X21138286Y-10229214D01*
X21166857Y-10243500D01*
X21181143Y-10257786D01*
X21195429Y-10286357D01*
X21195429Y-10372072D01*
X21181143Y-10400643D01*
X21166857Y-10414929D01*
X21138286Y-10429214D01*
X21095429Y-10429214D01*
X21366857Y-10429214D02*
X21338286Y-10414929D01*
X21324000Y-10386357D01*
X21324000Y-10129214D01*
X21595429Y-10414929D02*
X21566857Y-10429214D01*
X21509714Y-10429214D01*
X21481143Y-10414929D01*
X21466857Y-10386357D01*
X21466857Y-10272072D01*
X21481143Y-10243500D01*
X21509714Y-10229214D01*
X21566857Y-10229214D01*
X21595429Y-10243500D01*
X21609714Y-10272072D01*
X21609714Y-10300643D01*
X21466857Y-10329214D01*
X21724000Y-10414929D02*
X21752571Y-10429214D01*
X21809714Y-10429214D01*
X21838286Y-10414929D01*
X21852571Y-10386357D01*
X21852571Y-10372072D01*
X21838286Y-10343500D01*
X21809714Y-10329214D01*
X21766857Y-10329214D01*
X21738286Y-10314929D01*
X21724000Y-10286357D01*
X21724000Y-10272072D01*
X21738286Y-10243500D01*
X21766857Y-10229214D01*
X21809714Y-10229214D01*
X21838286Y-10243500D01*
X21952571Y-10543500D02*
X21966857Y-10529214D01*
X21995429Y-10486357D01*
X22009714Y-10457786D01*
X22024000Y-10414929D01*
X22038286Y-10343500D01*
X22038286Y-10286357D01*
X22024000Y-10214929D01*
X22009714Y-10172072D01*
X21995429Y-10143500D01*
X21966857Y-10100643D01*
X21952571Y-10086357D01*
M02*
