%TF.GenerationSoftware,KiCad,Pcbnew,5.99.0+really5.1.10+dfsg1-1+b1*%
%TF.CreationDate,2021-10-13T02:02:09+02:00*%
%TF.ProjectId,ctpfo,63747066-6f2e-46b6-9963-61645f706362,0.0.0*%
%TF.SameCoordinates,Original*%
%TF.FileFunction,Paste,Top*%
%TF.FilePolarity,Positive*%
%FSLAX46Y46*%
G04 Gerber Fmt 4.6, Leading zero omitted, Abs format (unit mm)*
G04 Created by KiCad (PCBNEW 5.99.0+really5.1.10+dfsg1-1+b1) date 2021-10-13 02:02:09*
%MOMM*%
%LPD*%
G01*
G04 APERTURE LIST*
%ADD10R,1.400000X1.300000*%
%ADD11R,0.500000X2.000000*%
%ADD12R,2.000000X1.700000*%
%ADD13R,2.199640X0.848360*%
%ADD14R,1.049020X0.998220*%
G04 APERTURE END LIST*
%TO.C,C22*%
G36*
G01*
X174315000Y-61210000D02*
X174315000Y-60710000D01*
G75*
G02*
X174540000Y-60485000I225000J0D01*
G01*
X174990000Y-60485000D01*
G75*
G02*
X175215000Y-60710000I0J-225000D01*
G01*
X175215000Y-61210000D01*
G75*
G02*
X174990000Y-61435000I-225000J0D01*
G01*
X174540000Y-61435000D01*
G75*
G02*
X174315000Y-61210000I0J225000D01*
G01*
G37*
G36*
G01*
X172765000Y-61210000D02*
X172765000Y-60710000D01*
G75*
G02*
X172990000Y-60485000I225000J0D01*
G01*
X173440000Y-60485000D01*
G75*
G02*
X173665000Y-60710000I0J-225000D01*
G01*
X173665000Y-61210000D01*
G75*
G02*
X173440000Y-61435000I-225000J0D01*
G01*
X172990000Y-61435000D01*
G75*
G02*
X172765000Y-61210000I0J225000D01*
G01*
G37*
%TD*%
D10*
%TO.C,5v*%
X163830000Y-58780000D03*
X163830000Y-55880000D03*
%TD*%
D11*
%TO.C,Power*%
X157170000Y-53810000D03*
X156370000Y-53810000D03*
X155570000Y-53810000D03*
X154770000Y-53810000D03*
X153970000Y-53810000D03*
D12*
X160020000Y-53710000D03*
X160020000Y-48260000D03*
X151120000Y-53710000D03*
X151120000Y-48260000D03*
%TD*%
D13*
%TO.C,J21*%
X186690000Y-53444140D03*
X186690000Y-50695860D03*
D14*
X185166000Y-52070000D03*
X188214000Y-52070000D03*
%TD*%
%TO.C,R7*%
G36*
G01*
X174809999Y-70607500D02*
X175710001Y-70607500D01*
G75*
G02*
X175960000Y-70857499I0J-249999D01*
G01*
X175960000Y-71382501D01*
G75*
G02*
X175710001Y-71632500I-249999J0D01*
G01*
X174809999Y-71632500D01*
G75*
G02*
X174560000Y-71382501I0J249999D01*
G01*
X174560000Y-70857499D01*
G75*
G02*
X174809999Y-70607500I249999J0D01*
G01*
G37*
G36*
G01*
X174809999Y-72432500D02*
X175710001Y-72432500D01*
G75*
G02*
X175960000Y-72682499I0J-249999D01*
G01*
X175960000Y-73207501D01*
G75*
G02*
X175710001Y-73457500I-249999J0D01*
G01*
X174809999Y-73457500D01*
G75*
G02*
X174560000Y-73207501I0J249999D01*
G01*
X174560000Y-72682499D01*
G75*
G02*
X174809999Y-72432500I249999J0D01*
G01*
G37*
%TD*%
%TO.C,R9*%
G36*
G01*
X173170001Y-71632500D02*
X172269999Y-71632500D01*
G75*
G02*
X172020000Y-71382501I0J249999D01*
G01*
X172020000Y-70857499D01*
G75*
G02*
X172269999Y-70607500I249999J0D01*
G01*
X173170001Y-70607500D01*
G75*
G02*
X173420000Y-70857499I0J-249999D01*
G01*
X173420000Y-71382501D01*
G75*
G02*
X173170001Y-71632500I-249999J0D01*
G01*
G37*
G36*
G01*
X173170001Y-73457500D02*
X172269999Y-73457500D01*
G75*
G02*
X172020000Y-73207501I0J249999D01*
G01*
X172020000Y-72682499D01*
G75*
G02*
X172269999Y-72432500I249999J0D01*
G01*
X173170001Y-72432500D01*
G75*
G02*
X173420000Y-72682499I0J-249999D01*
G01*
X173420000Y-73207501D01*
G75*
G02*
X173170001Y-73457500I-249999J0D01*
G01*
G37*
%TD*%
%TO.C,R22*%
G36*
G01*
X168397500Y-61410001D02*
X168397500Y-60509999D01*
G75*
G02*
X168647499Y-60260000I249999J0D01*
G01*
X169172501Y-60260000D01*
G75*
G02*
X169422500Y-60509999I0J-249999D01*
G01*
X169422500Y-61410001D01*
G75*
G02*
X169172501Y-61660000I-249999J0D01*
G01*
X168647499Y-61660000D01*
G75*
G02*
X168397500Y-61410001I0J249999D01*
G01*
G37*
G36*
G01*
X170222500Y-61410001D02*
X170222500Y-60509999D01*
G75*
G02*
X170472499Y-60260000I249999J0D01*
G01*
X170997501Y-60260000D01*
G75*
G02*
X171247500Y-60509999I0J-249999D01*
G01*
X171247500Y-61410001D01*
G75*
G02*
X170997501Y-61660000I-249999J0D01*
G01*
X170472499Y-61660000D01*
G75*
G02*
X170222500Y-61410001I0J249999D01*
G01*
G37*
%TD*%
%TO.C,LM335A*%
G36*
G01*
X163345000Y-74570000D02*
X163045000Y-74570000D01*
G75*
G02*
X162895000Y-74420000I0J150000D01*
G01*
X162895000Y-72770000D01*
G75*
G02*
X163045000Y-72620000I150000J0D01*
G01*
X163345000Y-72620000D01*
G75*
G02*
X163495000Y-72770000I0J-150000D01*
G01*
X163495000Y-74420000D01*
G75*
G02*
X163345000Y-74570000I-150000J0D01*
G01*
G37*
G36*
G01*
X164615000Y-74570000D02*
X164315000Y-74570000D01*
G75*
G02*
X164165000Y-74420000I0J150000D01*
G01*
X164165000Y-72770000D01*
G75*
G02*
X164315000Y-72620000I150000J0D01*
G01*
X164615000Y-72620000D01*
G75*
G02*
X164765000Y-72770000I0J-150000D01*
G01*
X164765000Y-74420000D01*
G75*
G02*
X164615000Y-74570000I-150000J0D01*
G01*
G37*
G36*
G01*
X165885000Y-74570000D02*
X165585000Y-74570000D01*
G75*
G02*
X165435000Y-74420000I0J150000D01*
G01*
X165435000Y-72770000D01*
G75*
G02*
X165585000Y-72620000I150000J0D01*
G01*
X165885000Y-72620000D01*
G75*
G02*
X166035000Y-72770000I0J-150000D01*
G01*
X166035000Y-74420000D01*
G75*
G02*
X165885000Y-74570000I-150000J0D01*
G01*
G37*
G36*
G01*
X167155000Y-74570000D02*
X166855000Y-74570000D01*
G75*
G02*
X166705000Y-74420000I0J150000D01*
G01*
X166705000Y-72770000D01*
G75*
G02*
X166855000Y-72620000I150000J0D01*
G01*
X167155000Y-72620000D01*
G75*
G02*
X167305000Y-72770000I0J-150000D01*
G01*
X167305000Y-74420000D01*
G75*
G02*
X167155000Y-74570000I-150000J0D01*
G01*
G37*
G36*
G01*
X167155000Y-69620000D02*
X166855000Y-69620000D01*
G75*
G02*
X166705000Y-69470000I0J150000D01*
G01*
X166705000Y-67820000D01*
G75*
G02*
X166855000Y-67670000I150000J0D01*
G01*
X167155000Y-67670000D01*
G75*
G02*
X167305000Y-67820000I0J-150000D01*
G01*
X167305000Y-69470000D01*
G75*
G02*
X167155000Y-69620000I-150000J0D01*
G01*
G37*
G36*
G01*
X165885000Y-69620000D02*
X165585000Y-69620000D01*
G75*
G02*
X165435000Y-69470000I0J150000D01*
G01*
X165435000Y-67820000D01*
G75*
G02*
X165585000Y-67670000I150000J0D01*
G01*
X165885000Y-67670000D01*
G75*
G02*
X166035000Y-67820000I0J-150000D01*
G01*
X166035000Y-69470000D01*
G75*
G02*
X165885000Y-69620000I-150000J0D01*
G01*
G37*
G36*
G01*
X164615000Y-69620000D02*
X164315000Y-69620000D01*
G75*
G02*
X164165000Y-69470000I0J150000D01*
G01*
X164165000Y-67820000D01*
G75*
G02*
X164315000Y-67670000I150000J0D01*
G01*
X164615000Y-67670000D01*
G75*
G02*
X164765000Y-67820000I0J-150000D01*
G01*
X164765000Y-69470000D01*
G75*
G02*
X164615000Y-69620000I-150000J0D01*
G01*
G37*
G36*
G01*
X163345000Y-69620000D02*
X163045000Y-69620000D01*
G75*
G02*
X162895000Y-69470000I0J150000D01*
G01*
X162895000Y-67820000D01*
G75*
G02*
X163045000Y-67670000I150000J0D01*
G01*
X163345000Y-67670000D01*
G75*
G02*
X163495000Y-67820000I0J-150000D01*
G01*
X163495000Y-69470000D01*
G75*
G02*
X163345000Y-69620000I-150000J0D01*
G01*
G37*
%TD*%
%TO.C,OP77*%
G36*
G01*
X176380000Y-67605000D02*
X176680000Y-67605000D01*
G75*
G02*
X176830000Y-67755000I0J-150000D01*
G01*
X176830000Y-69405000D01*
G75*
G02*
X176680000Y-69555000I-150000J0D01*
G01*
X176380000Y-69555000D01*
G75*
G02*
X176230000Y-69405000I0J150000D01*
G01*
X176230000Y-67755000D01*
G75*
G02*
X176380000Y-67605000I150000J0D01*
G01*
G37*
G36*
G01*
X175110000Y-67605000D02*
X175410000Y-67605000D01*
G75*
G02*
X175560000Y-67755000I0J-150000D01*
G01*
X175560000Y-69405000D01*
G75*
G02*
X175410000Y-69555000I-150000J0D01*
G01*
X175110000Y-69555000D01*
G75*
G02*
X174960000Y-69405000I0J150000D01*
G01*
X174960000Y-67755000D01*
G75*
G02*
X175110000Y-67605000I150000J0D01*
G01*
G37*
G36*
G01*
X173840000Y-67605000D02*
X174140000Y-67605000D01*
G75*
G02*
X174290000Y-67755000I0J-150000D01*
G01*
X174290000Y-69405000D01*
G75*
G02*
X174140000Y-69555000I-150000J0D01*
G01*
X173840000Y-69555000D01*
G75*
G02*
X173690000Y-69405000I0J150000D01*
G01*
X173690000Y-67755000D01*
G75*
G02*
X173840000Y-67605000I150000J0D01*
G01*
G37*
G36*
G01*
X172570000Y-67605000D02*
X172870000Y-67605000D01*
G75*
G02*
X173020000Y-67755000I0J-150000D01*
G01*
X173020000Y-69405000D01*
G75*
G02*
X172870000Y-69555000I-150000J0D01*
G01*
X172570000Y-69555000D01*
G75*
G02*
X172420000Y-69405000I0J150000D01*
G01*
X172420000Y-67755000D01*
G75*
G02*
X172570000Y-67605000I150000J0D01*
G01*
G37*
G36*
G01*
X172570000Y-62655000D02*
X172870000Y-62655000D01*
G75*
G02*
X173020000Y-62805000I0J-150000D01*
G01*
X173020000Y-64455000D01*
G75*
G02*
X172870000Y-64605000I-150000J0D01*
G01*
X172570000Y-64605000D01*
G75*
G02*
X172420000Y-64455000I0J150000D01*
G01*
X172420000Y-62805000D01*
G75*
G02*
X172570000Y-62655000I150000J0D01*
G01*
G37*
G36*
G01*
X173840000Y-62655000D02*
X174140000Y-62655000D01*
G75*
G02*
X174290000Y-62805000I0J-150000D01*
G01*
X174290000Y-64455000D01*
G75*
G02*
X174140000Y-64605000I-150000J0D01*
G01*
X173840000Y-64605000D01*
G75*
G02*
X173690000Y-64455000I0J150000D01*
G01*
X173690000Y-62805000D01*
G75*
G02*
X173840000Y-62655000I150000J0D01*
G01*
G37*
G36*
G01*
X175110000Y-62655000D02*
X175410000Y-62655000D01*
G75*
G02*
X175560000Y-62805000I0J-150000D01*
G01*
X175560000Y-64455000D01*
G75*
G02*
X175410000Y-64605000I-150000J0D01*
G01*
X175110000Y-64605000D01*
G75*
G02*
X174960000Y-64455000I0J150000D01*
G01*
X174960000Y-62805000D01*
G75*
G02*
X175110000Y-62655000I150000J0D01*
G01*
G37*
G36*
G01*
X176380000Y-62655000D02*
X176680000Y-62655000D01*
G75*
G02*
X176830000Y-62805000I0J-150000D01*
G01*
X176830000Y-64455000D01*
G75*
G02*
X176680000Y-64605000I-150000J0D01*
G01*
X176380000Y-64605000D01*
G75*
G02*
X176230000Y-64455000I0J150000D01*
G01*
X176230000Y-62805000D01*
G75*
G02*
X176380000Y-62655000I150000J0D01*
G01*
G37*
%TD*%
M02*
