%TF.GenerationSoftware,KiCad,Pcbnew,5.99.0+really5.1.10+dfsg1-1+b1*%
%TF.CreationDate,2021-10-13T02:02:09+02:00*%
%TF.ProjectId,ctpfo,63747066-6f2e-46b6-9963-61645f706362,0.0.0*%
%TF.SameCoordinates,Original*%
%TF.FileFunction,Soldermask,Bot*%
%TF.FilePolarity,Negative*%
%FSLAX46Y46*%
G04 Gerber Fmt 4.6, Leading zero omitted, Abs format (unit mm)*
G04 Created by KiCad (PCBNEW 5.99.0+really5.1.10+dfsg1-1+b1) date 2021-10-13 02:02:09*
%MOMM*%
%LPD*%
G01*
G04 APERTURE LIST*
%ADD10R,1.800000X1.800000*%
%ADD11C,1.800000*%
%ADD12C,1.400000*%
%ADD13O,1.400000X1.400000*%
%ADD14C,1.000000*%
%ADD15C,1.600000*%
%ADD16O,1.600000X1.600000*%
%ADD17R,3.000000X1.500000*%
%ADD18O,3.000000X1.500000*%
%ADD19C,1.440000*%
%ADD20O,1.700000X1.700000*%
%ADD21R,1.700000X1.700000*%
G04 APERTURE END LIST*
%TO.C,C23*%
G36*
G01*
X159695000Y-72140000D02*
X159695000Y-72640000D01*
G75*
G02*
X159470000Y-72865000I-225000J0D01*
G01*
X159020000Y-72865000D01*
G75*
G02*
X158795000Y-72640000I0J225000D01*
G01*
X158795000Y-72140000D01*
G75*
G02*
X159020000Y-71915000I225000J0D01*
G01*
X159470000Y-71915000D01*
G75*
G02*
X159695000Y-72140000I0J-225000D01*
G01*
G37*
G36*
G01*
X161245000Y-72140000D02*
X161245000Y-72640000D01*
G75*
G02*
X161020000Y-72865000I-225000J0D01*
G01*
X160570000Y-72865000D01*
G75*
G02*
X160345000Y-72640000I0J225000D01*
G01*
X160345000Y-72140000D01*
G75*
G02*
X160570000Y-71915000I225000J0D01*
G01*
X161020000Y-71915000D01*
G75*
G02*
X161245000Y-72140000I0J-225000D01*
G01*
G37*
%TD*%
%TO.C,C21*%
G36*
G01*
X169730000Y-63750000D02*
X169730000Y-63250000D01*
G75*
G02*
X169955000Y-63025000I225000J0D01*
G01*
X170405000Y-63025000D01*
G75*
G02*
X170630000Y-63250000I0J-225000D01*
G01*
X170630000Y-63750000D01*
G75*
G02*
X170405000Y-63975000I-225000J0D01*
G01*
X169955000Y-63975000D01*
G75*
G02*
X169730000Y-63750000I0J225000D01*
G01*
G37*
G36*
G01*
X168180000Y-63750000D02*
X168180000Y-63250000D01*
G75*
G02*
X168405000Y-63025000I225000J0D01*
G01*
X168855000Y-63025000D01*
G75*
G02*
X169080000Y-63250000I0J-225000D01*
G01*
X169080000Y-63750000D01*
G75*
G02*
X168855000Y-63975000I-225000J0D01*
G01*
X168405000Y-63975000D01*
G75*
G02*
X168180000Y-63750000I0J225000D01*
G01*
G37*
%TD*%
%TO.C,C1*%
G36*
G01*
X152650000Y-59365000D02*
X152150000Y-59365000D01*
G75*
G02*
X151925000Y-59140000I0J225000D01*
G01*
X151925000Y-58690000D01*
G75*
G02*
X152150000Y-58465000I225000J0D01*
G01*
X152650000Y-58465000D01*
G75*
G02*
X152875000Y-58690000I0J-225000D01*
G01*
X152875000Y-59140000D01*
G75*
G02*
X152650000Y-59365000I-225000J0D01*
G01*
G37*
G36*
G01*
X152650000Y-60915000D02*
X152150000Y-60915000D01*
G75*
G02*
X151925000Y-60690000I0J225000D01*
G01*
X151925000Y-60240000D01*
G75*
G02*
X152150000Y-60015000I225000J0D01*
G01*
X152650000Y-60015000D01*
G75*
G02*
X152875000Y-60240000I0J-225000D01*
G01*
X152875000Y-60690000D01*
G75*
G02*
X152650000Y-60915000I-225000J0D01*
G01*
G37*
%TD*%
D10*
%TO.C,Led*%
X165100000Y-64770000D03*
D11*
X165100000Y-62230000D03*
%TD*%
D12*
%TO.C,D6*%
X189230000Y-58420000D03*
D13*
X181610000Y-58420000D03*
%TD*%
%TO.C,D7*%
X181610000Y-55880000D03*
D12*
X189230000Y-55880000D03*
%TD*%
D14*
%TO.C,Power*%
X157770000Y-51110000D03*
X153370000Y-51110000D03*
%TD*%
D15*
%TO.C,VK200*%
X160020000Y-67310000D03*
D16*
X160020000Y-57150000D03*
%TD*%
%TO.C,self*%
X168910000Y-55880000D03*
D15*
X179070000Y-55880000D03*
%TD*%
D17*
%TO.C,0515SC*%
X154940000Y-58420000D03*
D18*
X154940000Y-60960000D03*
X154940000Y-66040000D03*
X154940000Y-68580000D03*
X154940000Y-71120000D03*
%TD*%
%TO.C,R1*%
G36*
G01*
X160420000Y-70300001D02*
X160420000Y-69399999D01*
G75*
G02*
X160669999Y-69150000I249999J0D01*
G01*
X161195001Y-69150000D01*
G75*
G02*
X161445000Y-69399999I0J-249999D01*
G01*
X161445000Y-70300001D01*
G75*
G02*
X161195001Y-70550000I-249999J0D01*
G01*
X160669999Y-70550000D01*
G75*
G02*
X160420000Y-70300001I0J249999D01*
G01*
G37*
G36*
G01*
X158595000Y-70300001D02*
X158595000Y-69399999D01*
G75*
G02*
X158844999Y-69150000I249999J0D01*
G01*
X159370001Y-69150000D01*
G75*
G02*
X159620000Y-69399999I0J-249999D01*
G01*
X159620000Y-70300001D01*
G75*
G02*
X159370001Y-70550000I-249999J0D01*
G01*
X158844999Y-70550000D01*
G75*
G02*
X158595000Y-70300001I0J249999D01*
G01*
G37*
%TD*%
%TO.C,R6*%
G36*
G01*
X161445000Y-74479999D02*
X161445000Y-75380001D01*
G75*
G02*
X161195001Y-75630000I-249999J0D01*
G01*
X160669999Y-75630000D01*
G75*
G02*
X160420000Y-75380001I0J249999D01*
G01*
X160420000Y-74479999D01*
G75*
G02*
X160669999Y-74230000I249999J0D01*
G01*
X161195001Y-74230000D01*
G75*
G02*
X161445000Y-74479999I0J-249999D01*
G01*
G37*
G36*
G01*
X159620000Y-74479999D02*
X159620000Y-75380001D01*
G75*
G02*
X159370001Y-75630000I-249999J0D01*
G01*
X158844999Y-75630000D01*
G75*
G02*
X158595000Y-75380001I0J249999D01*
G01*
X158595000Y-74479999D01*
G75*
G02*
X158844999Y-74230000I249999J0D01*
G01*
X159370001Y-74230000D01*
G75*
G02*
X159620000Y-74479999I0J-249999D01*
G01*
G37*
%TD*%
%TO.C,R8*%
G36*
G01*
X185265000Y-61410001D02*
X185265000Y-60509999D01*
G75*
G02*
X185514999Y-60260000I249999J0D01*
G01*
X186040001Y-60260000D01*
G75*
G02*
X186290000Y-60509999I0J-249999D01*
G01*
X186290000Y-61410001D01*
G75*
G02*
X186040001Y-61660000I-249999J0D01*
G01*
X185514999Y-61660000D01*
G75*
G02*
X185265000Y-61410001I0J249999D01*
G01*
G37*
G36*
G01*
X187090000Y-61410001D02*
X187090000Y-60509999D01*
G75*
G02*
X187339999Y-60260000I249999J0D01*
G01*
X187865001Y-60260000D01*
G75*
G02*
X188115000Y-60509999I0J-249999D01*
G01*
X188115000Y-61410001D01*
G75*
G02*
X187865001Y-61660000I-249999J0D01*
G01*
X187339999Y-61660000D01*
G75*
G02*
X187090000Y-61410001I0J249999D01*
G01*
G37*
%TD*%
D12*
%TO.C,R10_1\u0025*%
X184150000Y-72390000D03*
D13*
X179070000Y-72390000D03*
%TD*%
%TO.C,R21*%
G36*
G01*
X169667500Y-66490001D02*
X169667500Y-65589999D01*
G75*
G02*
X169917499Y-65340000I249999J0D01*
G01*
X170442501Y-65340000D01*
G75*
G02*
X170692500Y-65589999I0J-249999D01*
G01*
X170692500Y-66490001D01*
G75*
G02*
X170442501Y-66740000I-249999J0D01*
G01*
X169917499Y-66740000D01*
G75*
G02*
X169667500Y-66490001I0J249999D01*
G01*
G37*
G36*
G01*
X167842500Y-66490001D02*
X167842500Y-65589999D01*
G75*
G02*
X168092499Y-65340000I249999J0D01*
G01*
X168617501Y-65340000D01*
G75*
G02*
X168867500Y-65589999I0J-249999D01*
G01*
X168867500Y-66490001D01*
G75*
G02*
X168617501Y-66740000I-249999J0D01*
G01*
X168092499Y-66740000D01*
G75*
G02*
X167842500Y-66490001I0J249999D01*
G01*
G37*
%TD*%
D19*
%TO.C,VrefAdj*%
X186690000Y-66040000D03*
X184150000Y-66040000D03*
X181610000Y-66040000D03*
%TD*%
D20*
%TO.C,LedOption*%
X168910000Y-52070000D03*
X166370000Y-52070000D03*
D21*
X163830000Y-52070000D03*
%TD*%
%TO.C,selfOption*%
X173990000Y-52070000D03*
D20*
X176530000Y-52070000D03*
X179070000Y-52070000D03*
%TD*%
M02*
